########
# OBJ file exported from Mathematica (authored by Yajie)
# Vertices: 635
# Faces: 1199
########
v -0.009184 0.009184 0.
v -0.01301 0. 0.
v 0. 0. 0.
v 0. 0.01301 0.
v -0.018367 0.009184 0.
v -0.027551 0.006122 0.
v -0.038265 0. 0.
v -0.041327 0.01148 0.
v -0.052041 0.010714 0.
v -0.052041 0. 0.
v -0.061224 0.009184 0.
v -0.070408 0. 0.
v -0.070408 0.010714 0.
v -0.081122 0.009184 0.
v -0.093367 0. 0.
v -0.097959 0.010714 0.
v -0.111735 0.006122 0.
v -0.113265 0. 0.
v -0.12551 0.009184 0.
v -0.140051 0. 0.
v -0.137755 0.009184 0.
v -0.146939 0.010714 0.
v -0.160714 0.007653 0.
v -0.160714 0. 0.
v -0.17449 0.009184 0.
v -0.17449 0. 0.
v -0.191327 0.009184 0.
v -0.191327 0. 0.
v -0.205102 0.009184 0.
v -0.205102 0. 0.
v -0.217347 0.009184 0.
v -0.221939 0. 0.
v -0.231122 0.006122 0.
v -0.241837 0. 0.
v -0.24949 0.009184 0.
v -0.260204 0. 0.
v -0.261735 0.013776 0.
v -0.272449 0.013776 0.
v -0.277041 0. 0.
v -0.283163 0.013776 0.
v -0.290816 0.009184 0.
v -0.290816 0. 0.
v -0.3 0.009184 0.
v -0.3 0. 0.
v -0.009184 0.018367 0.
v -0.033673 0.018367 0.
v -0.088776 0.015306 0.
v -0.116327 0.015306 0.
v -0.156122 0.019898 0.
v -0.231122 0.015306 0.
v -0.021429 0.021429 0.
v -0.061224 0.021429 0.
v -0.079592 0.021429 0.
v -0.114796 0.02449 0.
v -0.133163 0.019898 0.
v -0.168367 0.019898 0.
v -0.180612 0.018367 0.
v -0.197449 0.019898 0.
v -0.215816 0.021429 0.
v -0.247959 0.021429 0.
v -0.290816 0.022959 0.
v -0.3 0.022959 0.
v -0.006122 0.027551 0.
v -0.030612 0.029082 0.
v -0.047449 0.027551 0.
v -0.070408 0.027551 0.
v -0.088776 0.027551 0.
v -0.10102 0.027551 0.
v -0.146939 0.027551 0.
v -0.137755 0.032143 0.
v -0.17449 0.027551 0.
v -0.186735 0.027551 0.
v -0.195918 0.032143 0.
v -0.231122 0.027551 0.
v -0.260204 0.027551 0.
v -0.272449 0.027551 0.
v -0.281633 0.027551 0.
v 0. 0.038265 0.
v -0.018367 0.033673 0.
v -0.061224 0.033673 0.
v -0.084184 0.035204 0.
v -0.114796 0.035204 0.
v -0.128571 0.033673 0.
v -0.160714 0.033673 0.
v -0.205102 0.033673 0.
v -0.217347 0.030612 0.
v -0.247959 0.033673 0.
v -0.290816 0.038265 0.
v -0.01148 0.041327 0.
v -0.030612 0.039796 0.
v -0.041327 0.039796 0.
v -0.052041 0.041327 0.
v -0.070408 0.040561 0.
v -0.10102 0.036735 0.
v -0.146939 0.039796 0.
v -0.17449 0.039796 0.
v -0.186735 0.039796 0.
v -0.209694 0.041327 0.
v -0.223469 0.039796 0.
v -0.235714 0.039796 0.
v -0.260204 0.039796 0.
v -0.272449 0.039796 0.
v -0.281633 0.039796 0.
v -0.3 0.045918 0.
v -0.062755 0.049745 0.
v -0.082653 0.046684 0.
v -0.094898 0.045918 0.
v -0.110204 0.045153 0.
v -0.12551 0.045918 0.
v -0.137755 0.044388 0.
v -0.16148 0.045918 0.
v -0.20051 0.04898 0.
v -0.247959 0.045918 0.
v -0.010714 0.052041 0.
v 0. 0.052041 0.
v -0.027551 0.052041 0.
v -0.039796 0.052041 0.
v -0.120918 0.053571 0.
v -0.140051 0.055867 0.
v -0.153061 0.052041 0.
v -0.177551 0.056633 0.
v -0.186735 0.052041 0.
v -0.217347 0.052041 0.
v -0.231122 0.052041 0.
v -0.260204 0.052041 0.
v -0.272449 0.052041 0.
v -0.284694 0.052041 0.
v -0.292347 0.056633 0.
v -0.055102 0.058163 0.
v -0.079592 0.058163 0.
v -0.093367 0.058163 0.
v -0.107143 0.055102 0.
v -0.168367 0.059694 0.
v -0.196684 0.061224 0.
v -0.247959 0.058163 0.
v -0.009184 0.061224 0.
v 0. 0.070408 0.
v -0.021429 0.061224 0.
v -0.033673 0.061224 0.
v -0.045918 0.061224 0.
v -0.070408 0.064286 0.
v -0.10102 0.064286 0.
v -0.114796 0.062755 0.
v -0.127041 0.064286 0.
v -0.151531 0.064286 0.
v -0.215816 0.061224 0.
v -0.231122 0.064286 0.
v -0.260204 0.064286 0.
v -0.272449 0.064286 0.
v -0.281633 0.064286 0.
v -0.3 0.065816 0.
v -0.010714 0.070408 0.
v -0.02449 0.075 0.
v -0.040561 0.070408 0.
v -0.057398 0.071173 0.
v -0.084184 0.070408 0.
v -0.113265 0.071939 0.
v -0.137755 0.070408 0.
v -0.160714 0.071939 0.
v -0.17449 0.070408 0.
v -0.186735 0.070408 0.
v -0.205102 0.071939 0.
v -0.217347 0.070408 0.
v -0.247959 0.070408 0.
v -0.290816 0.070408 0.
v -0.070408 0.076531 0.
v -0.10102 0.076531 0.
v -0.127041 0.078061 0.
v -0.146939 0.081122 0.
v -0.192857 0.078061 0.
v -0.231122 0.075 0.
v -0.264796 0.075 0.
v -0.278571 0.076531 0.
v -0.009184 0.081122 0.
v -0.035204 0.084184 0.
v -0.046684 0.082653 0.
v -0.065816 0.085714 0.
v -0.081122 0.087245 0.
v -0.088776 0.082653 0.
v -0.110204 0.087245 0.
v -0.119388 0.084184 0.
v -0.137755 0.084184 0.
v -0.156122 0.082653 0.
v -0.168367 0.079592 0.
v -0.180612 0.079592 0.
v -0.217347 0.087245 0.
v -0.247959 0.079592 0.
v -0.235714 0.082653 0.
v -0.264796 0.084184 0.
v -0.290816 0.083418 0.
v -0.3 0.084184 0.
v 0. 0.093367 0.
v -0.015306 0.088776 0.
v -0.027551 0.088776 0.
v -0.10102 0.088776 0.
v -0.169898 0.088776 0.
v -0.186735 0.088776 0.
v -0.20051 0.087245 0.
v -0.226531 0.088776 0.
v -0.247959 0.088776 0.
v -0.278571 0.088776 0.
v -0.010714 0.097959 0.
v -0.045918 0.094898 0.
v -0.058163 0.093367 0.
v -0.094898 0.094898 0.
v -0.12398 0.096429 0.
v -0.151531 0.094898 0.
v -0.205102 0.09949 0.
v -0.235714 0.09949 0.
v -0.264796 0.094898 0.
v -0.290816 0.097959 0.
v -0.027551 0.10102 0.
v -0.036735 0.10102 0.
v -0.064286 0.10102 0.
v -0.076531 0.10102 0.
v -0.088776 0.10102 0.
v -0.107143 0.097959 0.
v -0.137755 0.10102 0.
v -0.169898 0.104082 0.
v -0.17602 0.097959 0.
v -0.192857 0.097959 0.
v -0.217347 0.10102 0.
v -0.226531 0.10102 0.
v -0.247959 0.10102 0.
v -0.278571 0.10102 0.
v -0.3 0.10102 0.
v -0.006122 0.111735 0.
v 0. 0.107143 0.
v -0.045153 0.110204 0.
v -0.055102 0.107143 0.
v -0.094898 0.108673 0.
v -0.107143 0.107908 0.
v -0.120918 0.107143 0.
v -0.146939 0.107143 0.
v -0.156122 0.108673 0.
v -0.191327 0.107143 0.
v -0.264796 0.107143 0.
v -0.289286 0.107143 0.
v -0.015306 0.116327 0.
v -0.02449 0.114796 0.
v -0.035204 0.114796 0.
v -0.062755 0.114796 0.
v -0.071939 0.113265 0.
v -0.081122 0.114796 0.
v -0.137755 0.113265 0.
v -0.166837 0.116327 0.
v -0.205102 0.117857 0.
v -0.221939 0.110204 0.
v -0.235714 0.113265 0.
v -0.247959 0.110204 0.
v -0.278571 0.113265 0.
v -0.3 0.114796 0.
v 0. 0.12398 0.
v -0.053571 0.120918 0.
v -0.088776 0.119388 0.
v -0.10102 0.117857 0.
v -0.114796 0.123214 0.
v -0.12551 0.119388 0.
v -0.146939 0.119388 0.
v -0.177551 0.119388 0.
v -0.194388 0.120918 0.
v -0.215816 0.119388 0.
v -0.225 0.120918 0.
v -0.247959 0.119388 0.
v -0.264796 0.119388 0.
v -0.290816 0.119388 0.
v -0.009184 0.12551 0.
v -0.045918 0.12551 0.
v -0.064286 0.127041 0.
v -0.078061 0.127041 0.
v -0.09949 0.127041 0.
v -0.137755 0.12551 0.
v -0.159184 0.12551 0.
v -0.186735 0.12551 0.
v -0.235714 0.12551 0.
v -0.278571 0.12551 0.
v -0.021429 0.133163 0.
v -0.036735 0.132398 0.
v -0.12551 0.128571 0.
v -0.148469 0.133163 0.
v -0.17449 0.131633 0.
v -0.205102 0.131633 0.
v -0.217347 0.131633 0.
v -0.244898 0.133163 0.
v -0.264796 0.128571 0.
v -0.292347 0.133163 0.
v -0.3 0.133163 0.
v -0.009184 0.137755 0.
v 0. 0.142347 0.
v -0.030612 0.142347 0.
v -0.04898 0.137755 0.
v -0.062755 0.142347 0.
v -0.070408 0.137755 0.
v -0.084184 0.137755 0.
v -0.10102 0.137755 0.
v -0.113265 0.137755 0.
v -0.12551 0.137755 0.
v -0.137755 0.137755 0.
v -0.160714 0.137755 0.
v -0.186735 0.142347 0.
v -0.195918 0.142347 0.
v -0.229592 0.137755 0.
v -0.254082 0.142347 0.
v -0.264796 0.142347 0.
v -0.280102 0.137755 0.
v -0.052041 0.146939 0.
v -0.17449 0.143878 0.
v -0.205102 0.148469 0.
v -0.217347 0.145408 0.
v -0.007653 0.151531 0.
v -0.021429 0.146939 0.
v -0.038265 0.151531 0.
v -0.076531 0.146939 0.
v -0.090306 0.146939 0.
v -0.107143 0.146939 0.
v -0.12398 0.148469 0.
v -0.137755 0.146939 0.
v -0.15 0.146939 0.
v -0.162245 0.146939 0.
v -0.229592 0.146939 0.
v -0.238776 0.15 0.
v -0.277041 0.146939 0.
v -0.292347 0.151531 0.
v -0.3 0.151531 0.
v 0. 0.160714 0.
v -0.015306 0.156122 0.
v -0.027551 0.156122 0.
v -0.045918 0.16148 0.
v -0.058163 0.156122 0.
v -0.075 0.156122 0.
v -0.088776 0.156122 0.
v -0.10102 0.156122 0.
v -0.113265 0.156122 0.
v -0.12551 0.159184 0.
v -0.142347 0.156122 0.
v -0.160714 0.154592 0.
v -0.179082 0.156122 0.
v -0.192857 0.160714 0.
v -0.221939 0.157653 0.
v -0.247959 0.156122 0.
v -0.260204 0.156122 0.
v -0.272449 0.156122 0.
v -0.284694 0.156122 0.
v -0.156122 0.162245 0.
v -0.205102 0.166837 0.
v -0.235714 0.162245 0.
v -0.009184 0.169898 0.
v -0.019898 0.168367 0.
v -0.033673 0.165306 0.
v -0.059694 0.168367 0.
v -0.070408 0.169898 0.
v -0.082653 0.166837 0.
v -0.096429 0.169898 0.
v -0.107143 0.169898 0.
v -0.119388 0.166837 0.
v -0.142347 0.165306 0.
v -0.168367 0.169133 0.
v -0.180612 0.169898 0.
v -0.217347 0.168367 0.
v -0.226531 0.169898 0.
v -0.246429 0.172959 0.
v -0.257143 0.169898 0.
v -0.269388 0.166837 0.
v -0.286225 0.166837 0.
v -0.3 0.169898 0.
v 0. 0.17449 0.
v -0.027551 0.17449 0.
v -0.039796 0.17449 0.
v -0.056633 0.177551 0.
v -0.088776 0.17449 0.
v -0.131633 0.17449 0.
v -0.119388 0.177551 0.
v -0.143878 0.17449 0.
v -0.156122 0.179082 0.
v -0.192857 0.17449 0.
v -0.235714 0.17449 0.
v -0.272449 0.177551 0.
v -0.290816 0.17449 0.
v -0.018367 0.180612 0.
v -0.084184 0.183673 0.
v -0.165306 0.180612 0.
v -0.205102 0.180612 0.
v -0.217347 0.182143 0.
v -0.280102 0.184439 0.
v -0.009184 0.191327 0.
v 0. 0.191327 0.
v -0.027551 0.186735 0.
v -0.039796 0.186735 0.
v -0.052041 0.186735 0.
v -0.070408 0.186735 0.
v -0.096429 0.191327 0.
v -0.107143 0.191327 0.
v -0.12551 0.186735 0.
v -0.142347 0.186735 0.
v -0.17449 0.186735 0.
v -0.191327 0.186735 0.
v -0.229592 0.183673 0.
v -0.238776 0.189796 0.
v -0.254082 0.186735 0.
v -0.266327 0.192857 0.
v -0.290816 0.191327 0.
v -0.3 0.193622 0.
v -0.019898 0.197449 0.
v -0.061224 0.196684 0.
v -0.079592 0.194388 0.
v -0.120918 0.194388 0.
v -0.160714 0.192857 0.
v -0.205102 0.192857 0.
v -0.221939 0.194388 0.
v -0.032143 0.195918 0.
v -0.044388 0.20051 0.
v -0.142347 0.195918 0.
v -0.172959 0.20051 0.
v -0.191327 0.195918 0.
v -0.24949 0.197449 0.
v -0.278571 0.20051 0.
v -0.009184 0.205102 0.
v 0. 0.205102 0.
v -0.033673 0.205102 0.
v -0.052041 0.205102 0.
v -0.071939 0.205102 0.
v -0.088776 0.205102 0.
v -0.10102 0.205102 0.
v -0.117857 0.205102 0.
v -0.131633 0.205102 0.
v -0.148469 0.205102 0.
v -0.162245 0.205102 0.
v -0.180612 0.205102 0.
v -0.192857 0.205102 0.
v -0.206633 0.205102 0.
v -0.223469 0.205102 0.
v -0.235714 0.205102 0.
v -0.247959 0.208163 0.
v -0.263265 0.208929 0.
v -0.290816 0.205102 0.
v -0.021429 0.215816 0.
v -0.058163 0.214286 0.
v -0.009184 0.217347 0.
v 0. 0.221939 0.
v -0.030612 0.217347 0.
v -0.044388 0.215816 0.
v -0.070408 0.217347 0.
v -0.087245 0.217347 0.
v -0.10102 0.217347 0.
v -0.110204 0.221939 0.
v -0.119388 0.215816 0.
v -0.131633 0.217347 0.
v -0.139286 0.221939 0.
v -0.15 0.217347 0.
v -0.157653 0.221939 0.
v -0.168367 0.217347 0.
v -0.182143 0.217347 0.
v -0.195918 0.217347 0.
v -0.205102 0.217347 0.
v -0.221939 0.217347 0.
v -0.235714 0.217347 0.
v -0.254082 0.217347 0.
v -0.280102 0.215816 0.
v -0.293878 0.217347 0.
v -0.3 0.217347 0.
v -0.039796 0.223469 0.
v -0.062755 0.223469 0.
v -0.120918 0.225 0.
v -0.241837 0.225 0.
v -0.264796 0.225 0.
v -0.283163 0.223469 0.
v -0.006122 0.231122 0.
v -0.015306 0.231122 0.
v -0.027551 0.231122 0.
v -0.052041 0.226531 0.
v -0.076531 0.226531 0.
v -0.088776 0.226531 0.
v -0.10102 0.226531 0.
v -0.148469 0.233418 0.
v -0.169898 0.226531 0.
v -0.183673 0.229592 0.
v -0.192857 0.226531 0.
v -0.205102 0.226531 0.
v -0.217347 0.226531 0.
v -0.229592 0.226531 0.
v -0.255612 0.231122 0.
v -0.272449 0.230357 0.
v -0.292347 0.231122 0.
v -0.3 0.231122 0.
v 0. 0.241837 0.
v -0.039796 0.235714 0.
v -0.04898 0.235714 0.
v -0.058163 0.235714 0.
v -0.070408 0.235714 0.
v -0.082653 0.235714 0.
v -0.09949 0.235714 0.
v -0.113265 0.235714 0.
v -0.12551 0.235714 0.
v -0.137755 0.235714 0.
v -0.162245 0.235714 0.
v -0.17449 0.235714 0.
v -0.192857 0.235714 0.
v -0.205102 0.235714 0.
v -0.217347 0.235714 0.
v -0.231122 0.235714 0.
v -0.247959 0.235714 0.
v -0.284694 0.235714 0.
v -0.183673 0.243367 0.
v -0.267857 0.243367 0.
v -0.009184 0.244898 0.
v -0.021429 0.247959 0.
v -0.033673 0.247959 0.
v -0.045918 0.247959 0.
v -0.058163 0.247959 0.
v -0.070408 0.247959 0.
v -0.079592 0.247959 0.
v -0.088776 0.247959 0.
v -0.105612 0.247959 0.
v -0.119388 0.247959 0.
v -0.130102 0.247959 0.
v -0.145408 0.24949 0.
v -0.156122 0.246429 0.
v -0.165306 0.247959 0.
v -0.197449 0.24949 0.
v -0.208163 0.247959 0.
v -0.228061 0.246429 0.
v -0.246429 0.247959 0.
v -0.260204 0.247959 0.
v -0.278571 0.247959 0.
v -0.290816 0.247959 0.
v -0.3 0.254082 0.
v -0.009184 0.258673 0.
v -0.137755 0.254082 0.
v -0.17449 0.254082 0.
v -0.186735 0.254082 0.
v -0.217347 0.254082 0.
v -0.231122 0.255612 0.
v 0. 0.260204 0.
v -0.021429 0.260204 0.
v -0.030612 0.260204 0.
v -0.039796 0.260204 0.
v -0.052041 0.260204 0.
v -0.064286 0.260204 0.
v -0.081122 0.260204 0.
v -0.094898 0.264796 0.
v -0.111735 0.260204 0.
v -0.12551 0.260204 0.
v -0.160714 0.260204 0.
v -0.208929 0.263265 0.
v -0.247959 0.260204 0.
v -0.260204 0.260204 0.
v -0.272449 0.260204 0.
v -0.284694 0.260204 0.
v -0.292347 0.264796 0.
v -0.133163 0.267857 0.
v -0.146939 0.263265 0.
v -0.175255 0.269388 0.
v -0.188265 0.266327 0.
v -0.197449 0.266327 0.
v -0.225 0.264796 0.
v -0.243367 0.267857 0.
v -0.009184 0.272449 0.
v 0. 0.277041 0.
v -0.021429 0.272449 0.
v -0.030612 0.272449 0.
v -0.039796 0.272449 0.
v -0.054337 0.270918 0.
v -0.070408 0.269388 0.
v -0.082653 0.269388 0.
v -0.107143 0.269388 0.
v -0.119388 0.269388 0.
v -0.146939 0.277041 0.
v -0.160714 0.272449 0.
v -0.230357 0.272449 0.
v -0.260204 0.272449 0.
v -0.27398 0.270918 0.
v -0.3 0.27398 0.
v -0.064286 0.278571 0.
v -0.076531 0.278571 0.
v -0.088776 0.278571 0.
v -0.10102 0.278571 0.
v -0.113265 0.278571 0.
v -0.12551 0.278571 0.
v -0.137755 0.280102 0.
v -0.184439 0.280102 0.
v -0.20051 0.278571 0.
v -0.215816 0.280102 0.
v -0.247959 0.278571 0.
v -0.272449 0.280102 0.
v -0.289286 0.278571 0.
v -0.012245 0.284694 0.
v -0.02449 0.283163 0.
v -0.039796 0.281633 0.
v -0.052041 0.284694 0.
v -0.156122 0.284694 0.
v -0.166837 0.286225 0.
v -0.223469 0.283163 0.
v -0.235714 0.284694 0.
v -0.2625 0.28852 0.
v -0.007653 0.290816 0.
v 0. 0.290816 0.
v -0.033673 0.290816 0.
v -0.042857 0.290816 0.
v -0.067347 0.290816 0.
v -0.076531 0.290816 0.
v -0.085714 0.290816 0.
v -0.097959 0.290816 0.
v -0.107143 0.289286 0.
v -0.119388 0.290816 0.
v -0.133163 0.292347 0.
v -0.151531 0.292347 0.
v -0.17449 0.290816 0.
v -0.191327 0.290816 0.
v -0.205102 0.290816 0.
v -0.231122 0.292347 0.
v -0.247959 0.290816 0.
v -0.278571 0.290816 0.
v -0.290816 0.290816 0.
v -0.3 0.290816 0.
v -0.021429 0.293878 0.
v -0.056633 0.293878 0.
v -0.217347 0.293878 0.
v -0.009184 0.3 0.
v 0. 0.3 0.
v -0.022959 0.3 0.
v -0.045918 0.3 0.
v -0.065816 0.3 0.
v -0.084184 0.3 0.
v -0.10102 0.3 0.
v -0.114796 0.3 0.
v -0.133163 0.3 0.
v -0.151531 0.3 0.
v -0.169898 0.3 0.
v -0.193622 0.3 0.
v -0.217347 0.3 0.
v -0.231122 0.3 0.
v -0.254082 0.3 0.
v -0.27398 0.3 0.
v -0.290816 0.3 0.
v -0.3 0.3 0.
f 1 2 3
f 3 4 1
f 2 1 5
f 2 5 6
f 6 7 2
f 7 6 8
f 9 10 7
f 7 8 9
f 11 12 10
f 10 9 11
f 12 11 13
f 12 13 14
f 14 15 12
f 15 14 16
f 17 18 15
f 15 16 17
f 18 17 19
f 19 20 18
f 20 19 21
f 20 21 22
f 23 24 20
f 20 22 23
f 25 26 24
f 24 23 25
f 27 28 26
f 26 25 27
f 29 30 28
f 28 27 29
f 31 32 30
f 30 29 31
f 32 31 33
f 33 34 32
f 34 33 35
f 35 36 34
f 36 35 37
f 38 39 36
f 36 37 38
f 39 38 40
f 41 42 39
f 39 40 41
f 43 44 42
f 42 41 43
f 45 1 4
f 6 5 46
f 6 46 8
f 47 16 14
f 17 16 48
f 17 48 19
f 49 23 22
f 50 33 31
f 33 50 35
f 51 5 1
f 1 45 51
f 5 51 46
f 52 11 9
f 11 52 13
f 53 14 13
f 14 53 47
f 54 48 16
f 19 48 55
f 55 21 19
f 21 55 22
f 56 23 49
f 56 25 23
f 25 56 57
f 57 27 25
f 27 57 58
f 58 29 27
f 29 58 59
f 59 31 29
f 31 59 50
f 60 35 50
f 35 60 37
f 41 40 61
f 62 43 41
f 41 61 62
f 63 45 4
f 64 46 51
f 65 8 46
f 65 9 8
f 9 65 52
f 66 13 52
f 13 66 53
f 67 47 53
f 68 16 47
f 47 67 68
f 16 68 54
f 48 54 55
f 69 22 55
f 55 70 69
f 22 69 49
f 71 57 56
f 57 71 72
f 72 58 57
f 58 72 73
f 74 50 59
f 50 74 60
f 75 37 60
f 76 38 37
f 37 75 76
f 77 40 38
f 38 76 77
f 40 77 61
f 4 78 63
f 79 45 63
f 79 51 45
f 51 79 64
f 46 64 65
f 80 52 65
f 52 80 66
f 81 53 66
f 53 81 67
f 82 54 68
f 83 55 54
f 55 83 70
f 84 49 69
f 84 56 49
f 56 84 71
f 85 58 73
f 85 59 58
f 59 85 86
f 59 86 74
f 87 60 74
f 60 87 75
f 88 61 77
f 61 88 62
f 89 63 78
f 89 79 63
f 64 79 90
f 91 65 64
f 64 90 91
f 65 91 92
f 65 92 80
f 93 66 80
f 66 93 81
f 94 68 67
f 67 81 94
f 68 94 82
f 54 82 83
f 95 69 70
f 69 95 84
f 96 71 84
f 97 72 71
f 71 96 97
f 72 97 73
f 98 86 85
f 86 98 99
f 99 74 86
f 74 99 100
f 74 100 87
f 101 75 87
f 102 76 75
f 75 101 102
f 103 77 76
f 76 102 103
f 77 103 88
f 104 62 88
f 79 89 90
f 105 80 92
f 80 105 93
f 106 81 93
f 81 106 107
f 107 94 81
f 94 107 108
f 108 82 94
f 82 108 109
f 109 83 82
f 110 70 83
f 83 109 110
f 70 110 95
f 111 84 95
f 84 111 96
f 112 73 97
f 98 85 73
f 73 112 98
f 113 87 100
f 87 113 101
f 114 89 78
f 78 115 114
f 116 90 89
f 89 114 116
f 117 91 90
f 90 116 117
f 91 117 92
f 108 118 109
f 119 110 109
f 120 95 110
f 120 111 95
f 121 96 111
f 122 97 96
f 96 121 122
f 97 122 112
f 98 112 123
f 123 99 98
f 99 123 124
f 124 100 99
f 100 124 113
f 125 101 113
f 126 102 101
f 101 125 126
f 127 103 102
f 102 126 127
f 127 88 103
f 88 127 128
f 88 128 104
f 129 92 117
f 92 129 105
f 130 93 105
f 130 106 93
f 131 107 106
f 132 108 107
f 107 131 132
f 108 132 118
f 109 118 119
f 119 120 110
f 111 120 133
f 111 133 121
f 134 112 122
f 135 113 124
f 113 135 125
f 136 114 115
f 115 137 136
f 114 136 138
f 138 116 114
f 116 138 139
f 139 117 116
f 117 139 140
f 140 129 117
f 105 129 141
f 141 130 105
f 106 130 131
f 142 132 131
f 132 142 143
f 143 118 132
f 118 143 144
f 118 144 119
f 145 120 119
f 120 145 133
f 122 121 134
f 112 134 146
f 146 123 112
f 147 124 123
f 123 146 147
f 124 147 135
f 148 125 135
f 149 126 125
f 125 148 149
f 150 127 126
f 126 149 150
f 127 150 128
f 151 104 128
f 152 136 137
f 152 138 136
f 138 152 153
f 153 139 138
f 139 153 154
f 154 140 139
f 140 154 155
f 155 129 140
f 129 155 141
f 156 130 141
f 156 131 130
f 131 156 142
f 143 157 144
f 158 119 144
f 119 158 145
f 159 133 145
f 133 159 160
f 160 121 133
f 121 160 161
f 161 134 121
f 162 146 134
f 146 162 163
f 146 163 147
f 164 135 147
f 135 164 148
f 165 128 150
f 128 165 151
f 166 141 155
f 141 166 156
f 167 142 156
f 157 143 142
f 142 167 157
f 168 144 157
f 144 168 158
f 169 145 158
f 145 169 159
f 170 134 161
f 134 170 162
f 171 147 163
f 147 171 164
f 172 148 164
f 172 149 148
f 149 172 173
f 173 150 149
f 150 173 165
f 174 152 137
f 152 174 153
f 175 154 153
f 154 175 176
f 154 176 155
f 155 177 166
f 178 156 166
f 156 178 179
f 156 179 167
f 180 157 167
f 157 180 181
f 181 168 157
f 182 158 168
f 158 182 169
f 183 159 169
f 159 183 184
f 184 160 159
f 160 184 185
f 185 161 160
f 161 185 170
f 186 163 162
f 163 186 171
f 187 164 171
f 171 188 187
f 164 187 172
f 172 189 173
f 190 165 173
f 191 151 165
f 165 190 191
f 137 192 174
f 193 153 174
f 153 193 194
f 194 175 153
f 155 176 177
f 166 177 178
f 195 167 179
f 167 195 180
f 196 184 183
f 196 185 184
f 185 196 197
f 197 170 185
f 170 197 198
f 198 162 170
f 162 198 186
f 199 171 186
f 171 199 188
f 200 187 188
f 189 172 187
f 187 200 189
f 201 173 189
f 173 201 190
f 202 174 192
f 174 202 193
f 203 176 175
f 176 203 204
f 204 177 176
f 179 178 205
f 179 205 195
f 206 168 181
f 168 206 182
f 207 169 182
f 207 183 169
f 183 207 196
f 198 208 186
f 209 188 199
f 188 209 200
f 210 189 200
f 189 210 201
f 211 190 201
f 212 194 193
f 193 202 212
f 213 175 194
f 194 212 213
f 175 213 203
f 214 177 204
f 177 214 215
f 215 178 177
f 178 215 216
f 216 205 178
f 195 205 217
f 217 180 195
f 206 181 180
f 180 217 206
f 218 182 206
f 182 218 207
f 219 196 207
f 196 219 220
f 220 197 196
f 197 220 221
f 221 198 197
f 198 221 208
f 222 186 208
f 223 199 186
f 186 222 223
f 199 223 209
f 224 200 209
f 200 224 210
f 225 201 210
f 201 225 211
f 226 191 190
f 190 211 226
f 227 202 192
f 192 228 227
f 229 203 213
f 230 204 203
f 203 229 230
f 204 230 214
f 231 205 216
f 232 217 205
f 205 231 232
f 233 206 217
f 217 232 233
f 206 233 218
f 234 207 218
f 207 234 235
f 207 235 219
f 220 219 236
f 236 221 220
f 221 236 208
f 237 210 224
f 210 237 225
f 238 211 225
f 239 202 227
f 202 239 240
f 240 212 202
f 212 240 241
f 241 213 212
f 213 241 229
f 242 214 230
f 243 215 214
f 214 242 243
f 215 243 244
f 244 216 215
f 216 244 231
f 245 218 233
f 218 245 234
f 246 219 235
f 247 208 236
f 248 222 208
f 208 247 248
f 248 223 222
f 249 209 223
f 223 248 249
f 250 224 209
f 209 249 250
f 224 250 237
f 251 225 237
f 225 251 238
f 252 226 211
f 211 238 252
f 228 253 227
f 254 230 229
f 230 254 242
f 255 231 244
f 231 255 256
f 256 232 231
f 257 233 232
f 233 257 258
f 233 258 245
f 259 234 245
f 234 259 235
f 219 246 260
f 260 236 219
f 236 260 261
f 236 261 247
f 262 248 247
f 248 262 263
f 248 263 249
f 264 250 249
f 265 237 250
f 250 264 265
f 237 265 251
f 266 238 251
f 238 266 252
f 267 227 253
f 267 239 227
f 268 229 241
f 268 254 229
f 269 243 242
f 243 269 270
f 243 270 244
f 257 232 256
f 256 271 257
f 272 245 258
f 245 272 259
f 273 235 259
f 235 273 246
f 274 261 260
f 275 249 263
f 249 275 264
f 276 251 265
f 251 276 266
f 277 239 267
f 277 240 239
f 240 277 278
f 278 241 240
f 241 278 268
f 269 242 254
f 270 255 244
f 255 270 271
f 271 256 255
f 279 258 257
f 258 279 272
f 280 259 272
f 280 273 259
f 281 260 246
f 246 273 281
f 260 281 274
f 282 247 261
f 283 262 247
f 247 282 283
f 262 283 263
f 284 264 275
f 285 265 264
f 264 284 285
f 265 285 276
f 286 266 276
f 287 252 266
f 266 286 287
f 288 267 253
f 253 289 288
f 267 288 277
f 290 278 277
f 268 278 291
f 291 254 268
f 292 269 254
f 254 291 292
f 269 292 293
f 293 270 269
f 270 293 294
f 294 271 270
f 271 294 295
f 296 257 271
f 271 295 296
f 297 279 257
f 257 296 297
f 298 272 279
f 279 297 298
f 272 298 280
f 299 273 280
f 273 299 281
f 300 274 281
f 301 261 274
f 274 300 301
f 261 301 282
f 302 263 283
f 302 275 263
f 275 302 284
f 303 285 284
f 285 303 304
f 305 276 285
f 285 304 305
f 305 286 276
f 291 306 292
f 307 281 299
f 281 307 300
f 308 282 301
f 309 283 282
f 282 308 309
f 283 309 302
f 310 288 289
f 311 277 288
f 288 310 311
f 277 311 290
f 312 278 290
f 312 291 278
f 291 312 306
f 293 292 313
f 313 294 293
f 294 313 314
f 314 295 294
f 295 314 315
f 315 296 295
f 296 315 316
f 316 297 296
f 317 298 297
f 297 316 317
f 318 280 298
f 298 317 318
f 318 299 280
f 299 318 319
f 299 319 307
f 320 302 309
f 321 284 302
f 302 320 321
f 284 321 303
f 322 305 304
f 305 322 323
f 323 286 305
f 324 287 286
f 286 323 324
f 289 325 310
f 326 311 310
f 311 326 327
f 327 290 311
f 290 327 312
f 312 328 306
f 329 292 306
f 292 329 330
f 330 313 292
f 331 314 313
f 313 330 331
f 314 331 332
f 332 315 314
f 315 332 333
f 333 316 315
f 316 333 334
f 335 317 316
f 335 318 317
f 318 335 336
f 336 319 318
f 337 307 319
f 319 336 337
f 337 300 307
f 300 337 338
f 338 301 300
f 301 338 308
f 339 320 309
f 320 339 321
f 340 303 321
f 303 340 341
f 341 304 303
f 342 322 304
f 304 341 342
f 322 342 343
f 343 323 322
f 306 328 329
f 316 334 335
f 344 336 335
f 345 308 338
f 339 309 308
f 308 345 339
f 346 321 339
f 321 346 340
f 347 310 325
f 347 326 310
f 326 347 348
f 348 327 326
f 327 348 349
f 349 312 327
f 312 349 328
f 350 329 328
f 351 330 329
f 329 350 351
f 330 351 352
f 352 331 330
f 331 352 353
f 353 332 331
f 332 353 354
f 354 333 332
f 333 354 355
f 355 334 333
f 356 335 334
f 335 356 344
f 357 336 344
f 357 337 336
f 337 357 358
f 337 358 338
f 359 339 345
f 339 359 360
f 339 360 346
f 361 340 346
f 340 361 362
f 362 341 340
f 341 362 363
f 363 342 341
f 364 343 342
f 342 363 364
f 364 323 343
f 365 324 323
f 323 364 365
f 325 366 347
f 367 349 348
f 349 367 368
f 368 328 349
f 328 368 369
f 369 350 328
f 370 353 352
f 371 334 355
f 355 372 371
f 371 356 334
f 356 371 373
f 374 344 356
f 356 373 374
f 344 374 357
f 375 338 358
f 338 375 345
f 376 346 360
f 346 376 361
f 363 377 364
f 364 378 365
f 379 348 347
f 348 379 367
f 350 369 351
f 380 352 351
f 352 380 370
f 372 355 354
f 381 357 374
f 382 345 375
f 383 359 345
f 345 382 383
f 359 383 360
f 377 363 362
f 384 364 377
f 364 384 378
f 385 347 366
f 366 386 385
f 347 385 379
f 387 367 379
f 388 368 367
f 367 387 388
f 389 369 368
f 368 388 389
f 390 351 369
f 351 390 380
f 391 353 370
f 370 380 391
f 392 354 353
f 353 391 392
f 354 392 372
f 393 371 372
f 371 393 394
f 394 373 371
f 373 394 374
f 395 357 381
f 395 358 357
f 358 395 396
f 396 375 358
f 375 396 382
f 397 360 383
f 397 376 360
f 376 397 398
f 376 398 361
f 399 362 361
f 362 399 400
f 362 400 377
f 401 378 384
f 402 365 378
f 378 401 402
f 403 379 385
f 379 403 387
f 404 369 389
f 369 404 390
f 405 380 390
f 406 372 392
f 372 406 393
f 407 374 394
f 407 381 374
f 381 407 395
f 408 382 396
f 382 408 383
f 409 397 383
f 397 409 398
f 361 398 399
f 377 400 384
f 410 387 403
f 410 388 387
f 388 410 411
f 411 389 388
f 389 411 404
f 390 404 405
f 380 405 391
f 412 394 393
f 393 406 412
f 394 412 407
f 413 395 407
f 414 396 395
f 395 413 414
f 396 414 408
f 409 383 408
f 415 399 398
f 399 415 400
f 416 384 400
f 384 416 401
f 417 385 386
f 386 418 417
f 385 417 403
f 410 403 419
f 410 419 411
f 420 404 411
f 421 405 404
f 405 421 422
f 422 391 405
f 391 422 423
f 423 392 391
f 392 423 424
f 424 406 392
f 406 424 425
f 425 412 406
f 412 425 426
f 426 407 412
f 407 426 427
f 407 427 413
f 428 414 413
f 414 428 429
f 430 408 414
f 414 429 430
f 430 409 408
f 409 430 431
f 432 398 409
f 409 431 432
f 398 432 415
f 415 433 434
f 434 400 415
f 435 401 416
f 401 435 402
f 436 403 417
f 403 436 419
f 437 404 420
f 404 437 421
f 433 415 432
f 400 434 416
f 438 417 418
f 418 439 438
f 417 438 436
f 440 419 436
f 419 440 441
f 441 411 419
f 441 420 411
f 420 441 437
f 442 421 437
f 421 442 443
f 443 422 421
f 444 423 422
f 422 443 444
f 445 424 423
f 423 444 445
f 424 445 446
f 447 425 424
f 424 446 447
f 448 426 425
f 425 447 448
f 426 448 449
f 450 427 426
f 426 449 450
f 427 450 451
f 451 413 427
f 452 428 413
f 413 451 452
f 452 429 428
f 429 452 453
f 454 430 429
f 429 453 454
f 430 454 455
f 455 431 430
f 456 432 431
f 431 455 456
f 432 456 433
f 457 434 433
f 458 416 434
f 458 435 416
f 435 458 459
f 460 402 435
f 435 459 460
f 461 441 440
f 437 462 442
f 463 446 445
f 464 433 456
f 433 464 457
f 465 434 457
f 434 465 458
f 458 466 459
f 467 438 439
f 438 467 468
f 468 436 438
f 436 468 469
f 469 440 436
f 440 469 461
f 470 441 461
f 470 437 441
f 437 470 462
f 442 462 471
f 471 443 442
f 443 471 472
f 473 444 443
f 443 472 473
f 444 473 445
f 463 447 446
f 447 463 448
f 474 449 448
f 449 474 450
f 475 451 450
f 475 452 451
f 452 475 476
f 452 476 477
f 477 453 452
f 478 454 453
f 453 477 478
f 479 455 454
f 454 478 479
f 455 479 480
f 480 456 455
f 456 480 464
f 481 457 464
f 457 481 465
f 482 458 465
f 458 482 466
f 483 459 466
f 484 460 459
f 459 483 484
f 439 485 467
f 486 461 469
f 487 470 461
f 461 486 487
f 470 487 488
f 488 462 470
f 462 488 489
f 489 471 462
f 471 489 490
f 490 472 471
f 472 490 491
f 491 473 472
f 492 445 473
f 473 491 492
f 492 463 445
f 463 492 493
f 494 448 463
f 463 493 494
f 448 494 474
f 450 474 495
f 495 475 450
f 475 495 496
f 475 496 476
f 497 477 476
f 498 478 477
f 477 497 498
f 499 479 478
f 478 498 499
f 500 480 479
f 479 499 500
f 500 464 480
f 464 500 501
f 501 481 464
f 502 466 482
f 502 483 466
f 503 476 496
f 476 503 497
f 504 465 481
f 504 482 465
f 505 467 485
f 505 468 467
f 468 505 506
f 506 469 468
f 469 506 507
f 507 486 469
f 486 507 508
f 508 487 486
f 509 488 487
f 487 508 509
f 510 489 488
f 488 509 510
f 511 490 489
f 489 510 511
f 490 511 512
f 512 491 490
f 491 512 513
f 513 492 491
f 492 513 514
f 514 493 492
f 493 514 515
f 515 494 493
f 494 515 516
f 516 474 494
f 474 516 517
f 517 495 474
f 495 517 518
f 518 496 495
f 496 518 503
f 497 503 519
f 519 498 497
f 498 519 520
f 520 499 498
f 499 520 521
f 521 500 499
f 500 521 522
f 522 501 500
f 523 481 501
f 501 522 523
f 523 504 481
f 524 482 504
f 524 502 482
f 502 524 525
f 525 483 502
f 526 484 483
f 483 525 526
f 527 505 485
f 505 527 506
f 528 516 515
f 529 503 518
f 503 529 530
f 503 530 519
f 531 521 520
f 521 531 532
f 485 533 527
f 534 506 527
f 535 507 506
f 506 534 535
f 507 535 536
f 536 508 507
f 508 536 537
f 537 509 508
f 509 537 538
f 538 510 509
f 510 538 539
f 539 511 510
f 539 512 511
f 512 539 540
f 540 513 512
f 513 540 541
f 541 514 513
f 514 541 542
f 542 515 514
f 515 542 528
f 543 517 516
f 543 518 517
f 518 543 529
f 544 520 519
f 520 544 531
f 532 522 521
f 522 532 545
f 546 523 522
f 522 545 546
f 547 504 523
f 523 546 547
f 547 524 504
f 524 547 548
f 548 525 524
f 525 548 549
f 525 549 526
f 550 528 542
f 551 516 528
f 528 550 551
f 516 551 543
f 552 529 543
f 553 530 529
f 529 552 553
f 554 519 530
f 530 553 554
f 519 554 544
f 531 544 555
f 555 532 531
f 532 555 556
f 532 556 545
f 557 527 533
f 533 558 557
f 559 534 527
f 527 557 559
f 560 535 534
f 534 559 560
f 561 536 535
f 535 560 561
f 562 537 536
f 536 561 562
f 562 538 537
f 538 562 563
f 563 539 538
f 539 563 564
f 539 564 540
f 565 541 540
f 541 565 566
f 566 542 541
f 542 566 550
f 567 551 550
f 568 543 551
f 551 567 568
f 543 568 552
f 555 569 556
f 570 546 545
f 545 556 570
f 571 547 546
f 546 570 571
f 571 548 547
f 548 571 549
f 572 526 549
f 573 563 562
f 563 573 574
f 574 564 563
f 564 574 575
f 575 540 564
f 540 575 576
f 576 565 540
f 565 576 577
f 577 566 565
f 566 577 578
f 578 550 566
f 550 578 579
f 550 579 567
f 580 553 552
f 581 554 553
f 553 580 581
f 581 544 554
f 544 581 582
f 582 555 544
f 555 582 569
f 556 569 583
f 556 583 570
f 571 584 585
f 585 549 571
f 549 585 572
f 586 557 558
f 587 559 557
f 557 586 587
f 587 560 559
f 588 561 560
f 560 587 588
f 589 562 561
f 561 588 589
f 562 589 573
f 590 568 567
f 568 590 591
f 591 552 568
f 552 591 580
f 592 569 582
f 569 592 593
f 569 593 583
f 594 570 583
f 584 571 570
f 570 594 584
f 595 586 558
f 558 596 595
f 597 588 587
f 588 597 598
f 588 598 589
f 599 573 589
f 600 574 573
f 573 599 600
f 574 600 601
f 601 575 574
f 575 601 602
f 602 576 575
f 576 602 603
f 603 577 576
f 577 603 604
f 604 578 577
f 578 604 605
f 578 605 579
f 606 567 579
f 567 606 590
f 607 580 591
f 580 607 608
f 608 581 580
f 581 608 609
f 581 609 582
f 592 610 593
f 611 583 593
f 583 611 594
f 584 594 612
f 612 585 584
f 585 612 613
f 614 572 585
f 585 613 614
f 586 595 615
f 615 587 586
f 587 615 597
f 616 589 598
f 616 599 589
f 579 605 606
f 590 606 591
f 617 582 609
f 617 592 582
f 592 617 610
f 593 610 611
f 618 595 596
f 596 619 618
f 620 615 595
f 595 618 620
f 620 597 615
f 597 620 621
f 621 598 597
f 621 616 598
f 616 621 622
f 622 599 616
f 623 600 599
f 599 622 623
f 623 601 600
f 624 602 601
f 601 623 624
f 625 603 602
f 602 624 625
f 625 604 603
f 626 605 604
f 604 625 626
f 627 606 605
f 605 626 627
f 628 591 606
f 606 627 628
f 628 607 591
f 629 608 607
f 607 628 629
f 629 609 608
f 630 617 609
f 609 629 630
f 631 610 617
f 617 630 631
f 632 611 610
f 610 631 632
f 632 594 611
f 594 632 633
f 633 612 594
f 634 613 612
f 612 633 634
f 635 614 613
f 613 634 635
