########
# OBJ file exported from Mathematica (authored by Yajie)
# Vertices: 417
# Faces: 768
########
v 0.318034 0.318034 0.
v 0.363932 0.318034 0.
v 0.333333 0.333333 0.
v 0.358073 0.283854 0.
v 0.405762 0.297119 0.
v 0.402669 0.252279 0.
v 0.451823 0.274089 0.
v 0.450521 0.220052 0.
v 0.5 0.25 0.
v 0.297119 0.297119 0.
v 0.345052 0.252279 0.
v 0.395345 0.20931 0.
v 0.447266 0.166992 0.
v 0.5 0.1875 0.
v 0.274089 0.274089 0.
v 0.329427 0.220052 0.
v 0.385742 0.166992 0.
v 0.442708 0.114583 0.
v 0.5 0.125 0.
v 0.25 0.25 0.
v 0.3125 0.1875 0.
v 0.375 0.125 0.
v 0.4375 0.0625 0.
v 0.5 0.0625 0.
v 0.358073 0.358073 0.
v 0.318034 0.363932 0.
v 0.345052 0.402669 0.
v 0.297119 0.405762 0.
v 0.329427 0.450521 0.
v 0.274089 0.451823 0.
v 0.3125 0.5 0.
v 0.25 0.5 0.
v 0.402669 0.345052 0.
v 0.395345 0.395345 0.
v 0.385742 0.447266 0.
v 0.375 0.5 0.
v 0.450521 0.329427 0.
v 0.447266 0.385742 0.
v 0.442708 0.442708 0.
v 0.4375 0.5 0.
v 0.5 0.3125 0.
v 0.5 0.375 0.
v 0.5 0.4375 0.
v 0.5 0.5 0.
v 0.283854 0.358073 0.
v 0.252279 0.345052 0.
v 0.220052 0.329427 0.
v 0.252279 0.402669 0.
v 0.20931 0.395345 0.
v 0.166992 0.385742 0.
v 0.1875 0.3125 0.
v 0.220052 0.450521 0.
v 0.166992 0.447266 0.
v 0.114583 0.442708 0.
v 0.125 0.375 0.
v 0.1875 0.5 0.
v 0.125 0.5 0.
v 0.0625 0.5 0.
v 0.0625 0.4375 0.
v 0.666667 0.666667 0.
v 0.641927 0.641927 0.
v 0.681966 0.636068 0.
v 0.654948 0.597331 0.
v 0.702881 0.594238 0.
v 0.670573 0.549479 0.
v 0.725911 0.548177 0.
v 0.6875 0.5 0.
v 0.75 0.5 0.
v 0.636068 0.681966 0.
v 0.597331 0.654948 0.
v 0.604655 0.604655 0.
v 0.614258 0.552734 0.
v 0.625 0.5 0.
v 0.594238 0.702881 0.
v 0.549479 0.670573 0.
v 0.552734 0.614258 0.
v 0.557292 0.557292 0.
v 0.5625 0.5 0.
v 0.548177 0.725911 0.
v 0.5 0.6875 0.
v 0.5 0.625 0.
v 0.5 0.5625 0.
v 0.681966 0.681966 0.
v 0.716146 0.641927 0.
v 0.702881 0.702881 0.
v 0.747721 0.654948 0.
v 0.725911 0.725911 0.
v 0.779948 0.670573 0.
v 0.736815 -0.039219 0.
v 0.747721 0.597331 0.
v 0.79069 0.604655 0.
v 0.833008 0.614258 0.
v 0.8125 0.6875 0.
v 0.779948 0.549479 0.
v 0.833008 0.552734 0.
v 0.885417 0.557292 0.
v 0.875 0.625 0.
v 0.8125 0.5 0.
v 0.875 0.5 0.
v 0.9375 0.5 0.
v 0.9375 0.5625 0.
v 0.641927 0.716146 0.
v 0.597331 0.747721 0.
v 0.549479 0.779948 0.
v 0.5 0.75 0.
v 0.654948 0.747721 0.
v 0.604655 0.79069 0.
v 0.552734 0.833008 0.
v 0.5 0.8125 0.
v 0.670573 0.779948 0.
v 0.614258 0.833008 0.
v 0.557292 0.885417 0.
v 0.5 0.875 0.
v 0.6875 0.8125 0.
v 0.625 0.875 0.
v 0.5625 0.9375 0.
v 0.5 0.9375 0.
v 0.166667 0.166667 0.
v 0.141927 0.141927 0.
v 0.181966 0.136068 0.
v 0.154948 0.097331 0.
v 0.202881 0.094238 0.
v 0.170573 0.049479 0.
v 0.225911 0.048177 0.
v 0.1875 0. 0.
v 0.25 0. 0.
v 0.136068 0.181966 0.
v 0.097331 0.154948 0.
v 0.104655 0.104655 0.
v 0.114258 0.052734 0.
v 0.125 0. 0.
v 0.094238 0.202881 0.
v 0.049479 0.170573 0.
v 0.052734 0.114258 0.
v 0.057292 0.057292 0.
v 0.0625 0. 0.
v 0.048177 0.225911 0.
v 0. 0.1875 0.
v 0. 0.125 0.
v 0. 0.0625 0.
v 0. 0. 0.
v 0.181966 0.181966 0.
v 0.216146 0.141927 0.
v 0.202881 0.202881 0.
v 0.247721 0.154948 0.
v 0.225911 0.225911 0.
v 0.264879 1.03325 0.
v 0.247721 0.097331 0.
v 0.29069 0.104655 0.
v 0.333008 0.114258 0.
v 0.279948 0.049479 0.
v 0.333008 0.052734 0.
v 0.385417 0.057292 0.
v 0.3125 0. 0.
v 0.375 0. 0.
v 0.4375 0. 0.
v 0.141927 0.216146 0.
v 0.097331 0.247721 0.
v 0.049479 0.279948 0.
v 0. 0.25 0.
v 0.154948 0.247721 0.
v 0.104655 0.29069 0.
v 0.052734 0.333008 0.
v 0. 0.3125 0.
v 0.170573 0.279948 0.
v 0.114258 0.333008 0.
v 0.057292 0.385417 0.
v 0. 0.375 0.
v 0. 0.4375 0.
v 0.666667 0.166667 0.
v 0.641927 0.141927 0.
v 0.681966 0.136068 0.
v 0.654948 0.097331 0.
v 0.702881 0.094238 0.
v 0.670573 0.049479 0.
v 0.725911 0.048177 0.
v 0.6875 0. 0.
v 0.75 0. 0.
v 0.636068 0.181966 0.
v 0.597331 0.154948 0.
v 0.604655 0.104655 0.
v 0.614258 0.052734 0.
v 0.625 0. 0.
v 0.594238 0.202881 0.
v 0.589034 1.0389 0.
v 0.552734 0.114258 0.
v 0.557292 0.057292 0.
v 0.5625 0. 0.
v 0.548177 0.225911 0.
v 0.5 0. 0.
v 0.681966 0.181966 0.
v 0.716146 0.141927 0.
v 0.702881 0.202881 0.
v 0.747721 0.154948 0.
v 0.725911 0.225911 0.
v 0.779948 0.170573 0.
v 0.75 0.25 0.
v 0.747721 0.097331 0.
v 0.79069 0.104655 0.
v 0.833008 0.114258 0.
v 0.8125 0.1875 0.
v 0.779948 0.049479 0.
v 0.833008 0.052734 0.
v 0.885417 0.057292 0.
v 0.908904 1.03853 0.
v 0.8125 0. 0.
v 0.875 0. 0.
v 0.9375 0. 0.
v 0.9375 0.0625 0.
v 0.641927 0.216146 0.
v 0.597331 0.247721 0.
v 0.549479 0.279948 0.
v 0.654948 0.247721 0.
v 0.604655 0.29069 0.
v 0.552734 0.333008 0.
v 0.670573 0.279948 0.
v 0.614258 0.333008 0.
v 0.557292 0.385417 0.
v 0.6875 0.3125 0.
v 0.625 0.375 0.
v 0.5625 0.4375 0.
v 0.166667 0.666667 0.
v 0.141927 0.641927 0.
v 0.181966 0.636068 0.
v 0.154948 0.597331 0.
v 0.202881 0.594238 0.
v 0.170573 0.549479 0.
v 0.225911 0.548177 0.
v 0.136068 0.681966 0.
v 0.097331 0.654948 0.
v 0.104655 0.604655 0.
v 0.114258 0.552734 0.
v 0.094238 0.702881 0.
v 0.049479 0.670573 0.
v 0.052734 0.614258 0.
v 0.057292 0.557292 0.
v 0.048177 0.725911 0.
v 0. 0.6875 0.
v 0. 0.625 0.
v 0. 0.5625 0.
v 0. 0.5 0.
v 0.181966 0.681966 0.
v 0.216146 0.641927 0.
v 0.202881 0.702881 0.
v 0.247721 0.654948 0.
v 0.225911 0.725911 0.
v 0.279948 0.670573 0.
v 0.25 0.75 0.
v 0.247721 0.597331 0.
v 0.29069 0.604655 0.
v 0.333008 0.614258 0.
v 0.3125 0.6875 0.
v 0.279948 0.549479 0.
v 0.333008 0.552734 0.
v 0.385417 0.557292 0.
v 0.375 0.625 0.
v 0.4375 0.5625 0.
v 0.141927 0.716146 0.
v 0.097331 0.747721 0.
v 0.049479 0.779948 0.
v 0. 0.75 0.
v 0.154948 0.747721 0.
v 0.104655 0.79069 0.
v 0.052734 0.833008 0.
v 0. 0.8125 0.
v 0.170573 0.779948 0.
v 0.114258 0.833008 0.
v 0.057292 0.885417 0.
v 0. 0.875 0.
v 0.1875 0.8125 0.
v 0.076027 -0.057371 0.
v 0.0625 0.9375 0.
v 0. 0.9375 0.
v 0.318034 0.863932 0.
v 0.318034 0.818034 0.
v 0.333333 0.833333 0.
v 0.283854 0.858073 0.
v 0.297119 0.797119 0.
v 0.252279 0.845052 0.
v 0.274089 0.774089 0.
v 0.220052 0.829427 0.
v 0.297119 0.905762 0.
v 0.252279 0.902669 0.
v 0.20931 0.895345 0.
v 0.166992 0.885742 0.
v 0.274089 0.951823 0.
v 0.220052 0.950521 0.
v 0.166992 0.947266 0.
v 0.114583 0.942708 0.
v 0.25 1. 0.
v 0.1875 1. 0.
v 0.125 1. 0.
v 0.0625 1. 0.
v 0.363932 0.818034 0.
v 0.358073 0.783854 0.
v 0.405762 0.797119 0.
v 0.402669 0.752279 0.
v 0.451823 0.774089 0.
v 0.450521 0.720052 0.
v 0.345052 0.752279 0.
v 0.395345 0.70931 0.
v 0.447266 0.666992 0.
v 0.329427 0.720052 0.
v 0.385742 0.666992 0.
v 0.442708 0.614583 0.
v 0.358073 0.858073 0.
v 0.345052 0.902669 0.
v 0.329427 0.950521 0.
v 0.3125 1. 0.
v 0.402669 0.845052 0.
v 0.395345 0.895345 0.
v 0.385742 0.947266 0.
v 0.375 1. 0.
v 0.409082 -0.035135 0.
v 0.447266 0.885742 0.
v 0.442708 0.942708 0.
v 0.4375 1. 0.
v 0.5 1. 0.
v 0.818034 0.363932 0.
v 0.818034 0.318034 0.
v 0.833333 0.333333 0.
v 0.783854 0.358073 0.
v 0.797119 0.297119 0.
v 0.752279 0.345052 0.
v 0.774089 0.274089 0.
v 0.720052 0.329427 0.
v 0.797119 0.405762 0.
v 0.752279 0.402669 0.
v 0.70931 0.395345 0.
v 0.666992 0.385742 0.
v 0.774089 0.451823 0.
v 0.720052 0.450521 0.
v 0.666992 0.447266 0.
v 0.614583 0.442708 0.
v 0.863932 0.318034 0.
v 0.858073 0.283854 0.
v 0.905762 0.297119 0.
v 0.902669 0.252279 0.
v 0.951823 0.274089 0.
v 0.950521 0.220052 0.
v 1. 0.25 0.
v 0.845052 0.252279 0.
v 0.895345 0.20931 0.
v 0.947266 0.166992 0.
v 1. 0.1875 0.
v 0.829427 0.220052 0.
v 0.885742 0.166992 0.
v 0.942708 0.114583 0.
v 1. 0.125 0.
v 1. 0.0625 0.
v 0.858073 0.358073 0.
v 0.845052 0.402669 0.
v 0.829427 0.450521 0.
v 0.902669 0.345052 0.
v 0.895345 0.395345 0.
v 0.885742 0.447266 0.
v 0.950521 0.329427 0.
v 0.947266 0.385742 0.
v 0.942708 0.442708 0.
v 1. 0.3125 0.
v 1. 0.375 0.
v 1. 0.4375 0.
v 1. 0.5 0.
v 0.818034 0.863932 0.
v 0.818034 0.818034 0.
v 0.833333 0.833333 0.
v 0.783854 0.858073 0.
v 0.797119 0.797119 0.
v 0.752279 0.845052 0.
v 0.774089 0.774089 0.
v 0.720052 0.829427 0.
v 0.797119 0.905762 0.
v 0.752279 0.902669 0.
v 0.70931 0.895345 0.
v 0.666992 0.885742 0.
v 0.774089 0.951823 0.
v 0.720052 0.950521 0.
v 0.666992 0.947266 0.
v 0.614583 0.942708 0.
v 0.75 1. 0.
v 0.6875 1. 0.
v 0.625 1. 0.
v 0.5625 1. 0.
v 0.863932 0.818034 0.
v 0.858073 0.783854 0.
v 0.905762 0.797119 0.
v 0.902669 0.752279 0.
v 0.951823 0.774089 0.
v 0.950521 0.720052 0.
v 1. 0.75 0.
v 0.845052 0.752279 0.
v 0.895345 0.70931 0.
v 0.947266 0.666992 0.
v 1. 0.6875 0.
v 0.829427 0.720052 0.
v 0.885742 0.666992 0.
v 0.942708 0.614583 0.
v 1. 0.625 0.
v 1. 0.5625 0.
v 0.858073 0.858073 0.
v 0.845052 0.902669 0.
v 0.829427 0.950521 0.
v 0.8125 1. 0.
v 0.902669 0.845052 0.
v 0.895345 0.895345 0.
v 0.885742 0.947266 0.
v 0.875 1. 0.
v 0.950521 0.829427 0.
v 0.947266 0.885742 0.
v 0.942708 0.942708 0.
v 0.9375 1. 0.
v 1. 0.8125 0.
v 1. 0.875 0.
v 1. 0.9375 0.
v 1. 1. 0.
v 1. 0. 0.
v 0. 1. 0.
f 1 2 3
f 4 5 2
f 6 7 5
f 8 9 7
f 10 4 1
f 11 6 4
f 12 8 6
f 13 14 8
f 15 11 10
f 16 12 11
f 17 13 12
f 18 19 13
f 20 16 15
f 21 17 16
f 22 18 17
f 23 24 18
f 3 25 26
f 26 27 28
f 28 29 30
f 30 31 32
f 2 33 25
f 25 34 27
f 27 35 29
f 29 36 31
f 5 37 33
f 33 38 34
f 34 39 35
f 35 40 36
f 7 41 37
f 37 42 38
f 38 43 39
f 39 44 40
f 26 1 3
f 45 10 1
f 46 15 10
f 47 20 15
f 28 45 26
f 48 46 45
f 49 47 46
f 50 51 47
f 30 48 28
f 52 49 48
f 53 50 49
f 54 55 50
f 32 52 30
f 56 53 52
f 57 54 53
f 58 59 54
f 60 61 62
f 62 63 64
f 64 65 66
f 66 67 68
f 69 70 61
f 61 71 63
f 63 72 65
f 65 73 67
f 74 75 70
f 70 76 71
f 71 77 72
f 72 78 73
f 79 80 75
f 75 81 76
f 76 82 77
f 77 44 78
f 62 83 60
f 84 85 83
f 86 87 85
f 88 89 87
f 64 84 62
f 90 86 84
f 91 88 86
f 92 93 88
f 66 90 64
f 94 91 90
f 95 92 91
f 96 97 92
f 68 94 66
f 98 95 94
f 99 96 95
f 100 101 96
f 83 69 60
f 102 74 69
f 103 79 74
f 104 105 79
f 85 102 83
f 106 103 102
f 107 104 103
f 108 109 104
f 87 106 85
f 110 107 106
f 111 108 107
f 112 113 108
f 89 110 87
f 114 111 110
f 115 112 111
f 116 117 112
f 118 119 120
f 120 121 122
f 122 123 124
f 124 125 126
f 127 128 119
f 119 129 121
f 121 130 123
f 123 131 125
f 132 133 128
f 128 134 129
f 129 135 130
f 130 136 131
f 137 138 133
f 133 139 134
f 134 140 135
f 135 141 136
f 120 142 118
f 143 144 142
f 145 146 144
f 147 20 146
f 122 143 120
f 148 145 143
f 149 147 145
f 150 21 147
f 124 148 122
f 151 149 148
f 152 150 149
f 153 22 150
f 126 151 124
f 154 152 151
f 155 153 152
f 156 23 153
f 142 127 118
f 157 132 127
f 158 137 132
f 159 160 137
f 144 157 142
f 161 158 157
f 162 159 158
f 163 164 159
f 146 161 144
f 165 162 161
f 166 163 162
f 167 168 163
f 20 165 146
f 51 166 165
f 55 167 166
f 59 169 167
f 170 171 172
f 172 173 174
f 174 175 176
f 176 177 178
f 179 180 171
f 171 181 173
f 173 182 175
f 175 183 177
f 184 185 180
f 180 186 181
f 181 187 182
f 182 188 183
f 189 14 185
f 185 19 186
f 186 24 187
f 187 190 188
f 172 191 170
f 192 193 191
f 194 195 193
f 196 197 195
f 174 192 172
f 198 194 192
f 199 196 194
f 200 201 196
f 176 198 174
f 202 199 198
f 203 200 199
f 204 205 200
f 178 202 176
f 206 203 202
f 207 204 203
f 208 209 204
f 191 179 170
f 210 184 179
f 211 189 184
f 212 9 189
f 193 210 191
f 213 211 210
f 214 212 211
f 215 41 212
f 195 213 193
f 216 214 213
f 217 215 214
f 218 42 215
f 197 216 195
f 219 217 216
f 220 218 217
f 221 43 218
f 222 223 224
f 224 225 226
f 226 227 228
f 228 56 32
f 229 230 223
f 223 231 225
f 225 232 227
f 227 57 56
f 233 234 230
f 230 235 231
f 231 236 232
f 232 58 57
f 237 238 234
f 234 239 235
f 235 240 236
f 236 241 58
f 224 242 222
f 243 244 242
f 245 246 244
f 247 248 246
f 226 243 224
f 249 245 243
f 250 247 245
f 251 252 247
f 228 249 226
f 253 250 249
f 254 251 250
f 255 256 251
f 32 253 228
f 31 254 253
f 36 255 254
f 40 257 255
f 242 229 222
f 258 233 229
f 259 237 233
f 260 261 237
f 244 258 242
f 262 259 258
f 263 260 259
f 264 265 260
f 246 262 244
f 266 263 262
f 267 264 263
f 268 269 264
f 248 266 246
f 270 267 266
f 271 268 267
f 272 273 268
f 274 275 276
f 277 278 275
f 279 280 278
f 281 248 280
f 282 277 274
f 283 279 277
f 284 281 279
f 285 270 281
f 286 283 282
f 287 284 283
f 288 285 284
f 289 271 285
f 290 287 286
f 291 288 287
f 292 289 288
f 293 272 289
f 275 294 276
f 295 296 294
f 297 298 296
f 299 105 298
f 278 295 275
f 300 297 295
f 301 299 297
f 302 80 299
f 280 300 278
f 303 301 300
f 304 302 301
f 305 81 302
f 248 303 280
f 252 304 303
f 256 305 304
f 257 82 305
f 276 306 274
f 274 307 282
f 282 308 286
f 286 309 290
f 294 310 306
f 306 311 307
f 307 312 308
f 308 313 309
f 296 314 310
f 310 315 311
f 311 316 312
f 312 317 313
f 298 109 314
f 314 113 315
f 315 117 316
f 316 318 317
f 319 320 321
f 322 323 320
f 324 325 323
f 326 197 325
f 327 322 319
f 328 324 322
f 329 326 324
f 330 219 326
f 331 328 327
f 332 329 328
f 333 330 329
f 334 220 330
f 68 332 331
f 67 333 332
f 73 334 333
f 78 221 334
f 320 335 321
f 336 337 335
f 338 339 337
f 340 341 339
f 323 336 320
f 342 338 336
f 343 340 338
f 344 345 340
f 325 342 323
f 346 343 342
f 347 344 343
f 348 349 344
f 197 346 325
f 201 347 346
f 205 348 347
f 209 350 348
f 321 351 319
f 319 352 327
f 327 353 331
f 331 98 68
f 335 354 351
f 351 355 352
f 352 356 353
f 353 99 98
f 337 357 354
f 354 358 355
f 355 359 356
f 356 100 99
f 339 360 357
f 357 361 358
f 358 362 359
f 359 363 100
f 364 365 366
f 367 368 365
f 369 370 368
f 371 89 370
f 372 367 364
f 373 369 367
f 374 371 369
f 375 114 371
f 376 373 372
f 377 374 373
f 378 375 374
f 379 115 375
f 380 377 376
f 381 378 377
f 382 379 378
f 383 116 379
f 365 384 366
f 385 386 384
f 387 388 386
f 389 390 388
f 368 385 365
f 391 387 385
f 392 389 387
f 393 394 389
f 370 391 368
f 395 392 391
f 396 393 392
f 397 398 393
f 89 395 370
f 93 396 395
f 97 397 396
f 101 399 397
f 366 400 364
f 364 401 372
f 372 402 376
f 376 403 380
f 384 404 400
f 400 405 401
f 401 406 402
f 402 407 403
f 386 408 404
f 404 409 405
f 405 410 406
f 406 411 407
f 388 412 408
f 408 413 409
f 409 414 410
f 410 415 411
f 1 4 2
f 4 6 5
f 6 8 7
f 8 14 9
f 10 11 4
f 11 12 6
f 12 13 8
f 13 19 14
f 15 16 11
f 16 17 12
f 17 18 13
f 18 24 19
f 20 21 16
f 21 22 17
f 22 23 18
f 23 190 24
f 3 2 25
f 26 25 27
f 28 27 29
f 30 29 31
f 2 5 33
f 25 33 34
f 27 34 35
f 29 35 36
f 5 7 37
f 33 37 38
f 34 38 39
f 35 39 40
f 7 9 41
f 37 41 42
f 38 42 43
f 39 43 44
f 26 45 1
f 45 46 10
f 46 47 15
f 47 51 20
f 28 48 45
f 48 49 46
f 49 50 47
f 50 55 51
f 30 52 48
f 52 53 49
f 53 54 50
f 54 59 55
f 32 56 52
f 56 57 53
f 57 58 54
f 58 241 59
f 60 69 61
f 62 61 63
f 64 63 65
f 66 65 67
f 69 74 70
f 61 70 71
f 63 71 72
f 65 72 73
f 74 79 75
f 70 75 76
f 71 76 77
f 72 77 78
f 79 105 80
f 75 80 81
f 76 81 82
f 77 82 44
f 62 84 83
f 84 86 85
f 86 88 87
f 88 93 89
f 64 90 84
f 90 91 86
f 91 92 88
f 92 97 93
f 66 94 90
f 94 95 91
f 95 96 92
f 96 101 97
f 68 98 94
f 98 99 95
f 99 100 96
f 100 363 101
f 83 102 69
f 102 103 74
f 103 104 79
f 104 109 105
f 85 106 102
f 106 107 103
f 107 108 104
f 108 113 109
f 87 110 106
f 110 111 107
f 111 112 108
f 112 117 113
f 89 114 110
f 114 115 111
f 115 116 112
f 116 318 117
f 118 127 119
f 120 119 121
f 122 121 123
f 124 123 125
f 127 132 128
f 119 128 129
f 121 129 130
f 123 130 131
f 132 137 133
f 128 133 134
f 129 134 135
f 130 135 136
f 137 160 138
f 133 138 139
f 134 139 140
f 135 140 141
f 120 143 142
f 143 145 144
f 145 147 146
f 147 21 20
f 122 148 143
f 148 149 145
f 149 150 147
f 150 22 21
f 124 151 148
f 151 152 149
f 152 153 150
f 153 23 22
f 126 154 151
f 154 155 152
f 155 156 153
f 156 190 23
f 142 157 127
f 157 158 132
f 158 159 137
f 159 164 160
f 144 161 157
f 161 162 158
f 162 163 159
f 163 168 164
f 146 165 161
f 165 166 162
f 166 167 163
f 167 169 168
f 20 51 165
f 51 55 166
f 55 59 167
f 59 241 169
f 170 179 171
f 172 171 173
f 174 173 175
f 176 175 177
f 179 184 180
f 171 180 181
f 173 181 182
f 175 182 183
f 184 189 185
f 180 185 186
f 181 186 187
f 182 187 188
f 189 9 14
f 185 14 19
f 186 19 24
f 187 24 190
f 172 192 191
f 192 194 193
f 194 196 195
f 196 201 197
f 174 198 192
f 198 199 194
f 199 200 196
f 200 205 201
f 176 202 198
f 202 203 199
f 203 204 200
f 204 209 205
f 178 206 202
f 206 207 203
f 207 208 204
f 208 416 209
f 191 210 179
f 210 211 184
f 211 212 189
f 212 41 9
f 193 213 210
f 213 214 211
f 214 215 212
f 215 42 41
f 195 216 213
f 216 217 214
f 217 218 215
f 218 43 42
f 197 219 216
f 219 220 217
f 220 221 218
f 221 44 43
f 222 229 223
f 224 223 225
f 226 225 227
f 228 227 56
f 229 233 230
f 223 230 231
f 225 231 232
f 227 232 57
f 233 237 234
f 230 234 235
f 231 235 236
f 232 236 58
f 237 261 238
f 234 238 239
f 235 239 240
f 236 240 241
f 224 243 242
f 243 245 244
f 245 247 246
f 247 252 248
f 226 249 243
f 249 250 245
f 250 251 247
f 251 256 252
f 228 253 249
f 253 254 250
f 254 255 251
f 255 257 256
f 32 31 253
f 31 36 254
f 36 40 255
f 40 44 257
f 242 258 229
f 258 259 233
f 259 260 237
f 260 265 261
f 244 262 258
f 262 263 259
f 263 264 260
f 264 269 265
f 246 266 262
f 266 267 263
f 267 268 264
f 268 273 269
f 248 270 266
f 270 271 267
f 271 272 268
f 272 417 273
f 274 277 275
f 277 279 278
f 279 281 280
f 281 270 248
f 282 283 277
f 283 284 279
f 284 285 281
f 285 271 270
f 286 287 283
f 287 288 284
f 288 289 285
f 289 272 271
f 290 291 287
f 291 292 288
f 292 293 289
f 293 417 272
f 275 295 294
f 295 297 296
f 297 299 298
f 299 80 105
f 278 300 295
f 300 301 297
f 301 302 299
f 302 81 80
f 280 303 300
f 303 304 301
f 304 305 302
f 305 82 81
f 248 252 303
f 252 256 304
f 256 257 305
f 257 44 82
f 276 294 306
f 274 306 307
f 282 307 308
f 286 308 309
f 294 296 310
f 306 310 311
f 307 311 312
f 308 312 313
f 296 298 314
f 310 314 315
f 311 315 316
f 312 316 317
f 298 105 109
f 314 109 113
f 315 113 117
f 316 117 318
f 319 322 320
f 322 324 323
f 324 326 325
f 326 219 197
f 327 328 322
f 328 329 324
f 329 330 326
f 330 220 219
f 331 332 328
f 332 333 329
f 333 334 330
f 334 221 220
f 68 67 332
f 67 73 333
f 73 78 334
f 78 44 221
f 320 336 335
f 336 338 337
f 338 340 339
f 340 345 341
f 323 342 336
f 342 343 338
f 343 344 340
f 344 349 345
f 325 346 342
f 346 347 343
f 347 348 344
f 348 350 349
f 197 201 346
f 201 205 347
f 205 209 348
f 209 416 350
f 321 335 351
f 319 351 352
f 327 352 353
f 331 353 98
f 335 337 354
f 351 354 355
f 352 355 356
f 353 356 99
f 337 339 357
f 354 357 358
f 355 358 359
f 356 359 100
f 339 341 360
f 357 360 361
f 358 361 362
f 359 362 363
f 364 367 365
f 367 369 368
f 369 371 370
f 371 114 89
f 372 373 367
f 373 374 369
f 374 375 371
f 375 115 114
f 376 377 373
f 377 378 374
f 378 379 375
f 379 116 115
f 380 381 377
f 381 382 378
f 382 383 379
f 383 318 116
f 365 385 384
f 385 387 386
f 387 389 388
f 389 394 390
f 368 391 385
f 391 392 387
f 392 393 389
f 393 398 394
f 370 395 391
f 395 396 392
f 396 397 393
f 397 399 398
f 89 93 395
f 93 97 396
f 97 101 397
f 101 363 399
f 366 384 400
f 364 400 401
f 372 401 402
f 376 402 403
f 384 386 404
f 400 404 405
f 401 405 406
f 402 406 407
f 386 388 408
f 404 408 409
f 405 409 410
f 406 410 411
f 388 390 412
f 408 412 413
f 409 413 414
f 410 414 415
