9
10
11
19
24
25
26
37
38
41
42
43
44
45
46
48
49
50
60
61
62
72
73
74
87
88
105
106
107
116
117
118
126
127
128
129
130
134
135
136
137
149
156
164
182
187
188
189
198
199
201
202
216
221
223
224
232
236
239
240
241
253
261
264
265
266
268
270
273
275
277
278
279
286
293
294
298
301
302
303
322
334
359
360
