####
#
# OBJ File Generated by Meshlab
#
####
# Object armadiloS2.obj
#
# Vertices: 377
# Faces: 750
#
####
vn 0.046668 0.971028 -0.234363
v -0.029893 0.346208 -0.092945
vn 0.780842 0.624464 -0.018183
v 0.255121 -0.093158 -0.152876
vn 0.672201 0.729080 0.128795
v 0.068099 -0.192937 0.170798
vn 0.841927 0.017181 0.539318
v 0.370055 0.334582 0.022564
vn -0.798967 0.595781 -0.081832
v -0.183487 0.226461 -0.014246
vn -0.596675 0.111962 -0.794634
v -0.313436 -0.400865 0.436281
vn -0.121900 0.480055 0.868727
v -0.025773 0.234718 0.208552
vn 0.042445 0.166165 -0.985184
v 0.177519 0.102242 -0.076503
vn 0.732639 0.672840 -0.102597
v 0.073002 0.300049 -0.009894
vn 0.402265 0.532875 -0.744465
v 0.006901 0.272427 -0.230011
vn -0.707603 0.639900 0.299709
v -0.155031 -0.129840 0.106629
vn -0.708752 0.531767 -0.463568
v -0.189906 0.453800 -0.145703
vn -0.050321 0.789773 0.611332
v -0.031279 0.295460 0.157354
vn -0.731477 -0.679995 -0.050483
v -0.073126 0.143593 -0.223183
vn -0.378526 0.085258 0.921656
v -0.456075 0.309071 0.058872
vn 0.805113 -0.503829 0.312969
v 0.125233 -0.031360 0.105999
vn -0.373883 -0.789131 -0.487323
v -0.304721 0.060208 -0.051336
vn 0.996940 -0.032132 0.071257
v 0.120586 -0.062516 0.068144
vn 0.981202 0.044859 0.187699
v 0.290271 -0.217553 -0.156257
vn 0.158586 0.589468 0.792072
v -0.427949 0.366159 0.040609
vn 0.737108 -0.147852 0.659403
v 0.094610 -0.075006 0.154896
vn 0.598475 -0.429291 0.676415
v 0.095288 -0.172829 0.108867
vn 0.813989 -0.482297 -0.323746
v -0.170423 -0.331067 0.197323
vn 0.344432 -0.575052 -0.742079
v 0.053913 -0.046844 -0.095059
vn -0.540457 0.836894 0.086693
v -0.208406 0.179776 0.011506
vn 0.625115 -0.029577 0.779972
v 0.203212 -0.393608 -0.078995
vn 0.720029 0.624506 -0.302575
v 0.247960 -0.116512 -0.215769
vn -0.342688 -0.902034 0.262488
v 0.052458 -0.246281 0.207265
vn 0.241553 -0.222840 0.944454
v 0.021931 -0.083070 0.186185
vn -0.859710 -0.456895 -0.228355
v -0.477170 0.220152 -0.007249
vn 0.744402 0.492148 -0.451284
v 0.069564 0.436097 -0.143265
vn -0.488686 -0.764971 -0.419531
v -0.408600 0.111338 -0.036271
vn -0.564593 -0.806184 0.176920
v -0.347124 0.072124 0.007258
vn 0.051670 0.289589 0.955755
v 0.271516 0.138412 0.025648
vn -0.557662 -0.187805 0.808543
v -0.462095 0.241739 0.040216
vn 0.877207 0.099757 -0.469635
v 0.363003 0.304242 -0.031896
vn 0.050455 0.312937 0.948433
v -0.131160 0.419070 -0.125948
vn 0.557610 -0.205300 0.804315
v 0.197964 0.072665 0.075437
vn 0.360123 -0.914798 -0.182911
v -0.206351 -0.348198 0.134718
vn 0.726411 0.351658 -0.590478
v 0.088179 0.210856 -0.117295
vn 0.075554 -0.359172 -0.930208
v 0.287462 0.103813 -0.089742
vn 0.666975 -0.441814 -0.599953
v 0.111099 0.010839 -0.086863
vn -0.854267 0.514244 0.076036
v -0.291903 -0.292184 0.210115
vn -0.525417 0.217980 -0.822449
v -0.353467 -0.390137 0.458282
vn -0.929831 -0.367004 0.026876
v -0.349663 -0.432303 0.475725
vn 0.229766 -0.245168 0.941860
v 0.026790 0.049744 0.222113
vn 0.106465 -0.106771 0.988567
v 0.329969 0.200264 0.075932
vn -0.530955 0.304728 0.790713
v 0.142143 -0.390466 -0.071705
vn 0.030820 -0.250570 -0.967608
v 0.218247 -0.237058 -0.252679
vn 0.763916 -0.211864 0.609546
v 0.246310 -0.315807 -0.095576
vn -0.648004 0.675206 0.352402
v 0.257672 0.449377 0.023402
vn 0.881707 0.071851 -0.466294
v 0.029147 0.324884 -0.167550
vn 0.824231 -0.559525 0.087033
v -0.189723 -0.361894 0.431353
vn 0.521807 0.847169 -0.100108
v 0.119416 -0.063308 -0.010443
vn -0.464098 -0.667263 -0.582557
v -0.197413 0.050678 -0.057750
vn 0.216755 -0.327124 0.919786
v -0.376450 0.166847 0.080428
vn 0.768395 -0.532739 -0.354625
v 0.024101 0.177524 -0.210433
vn -0.701802 -0.466274 0.538574
v -0.515832 0.245248 0.012773
vn 0.715837 -0.334669 -0.612841
v 0.263804 -0.250978 -0.227039
vn -0.473526 0.641065 0.603995
v -0.086415 0.271950 0.156697
vn 0.153105 -0.197436 -0.968286
v 0.038726 0.030737 -0.139615
vn 0.148970 0.052952 0.987423
v 0.196417 -0.342342 -0.067427
vn -0.144731 0.151920 0.977739
v -0.288908 -0.352090 0.519226
vn 0.840334 -0.192404 0.506773
v -0.166240 -0.327565 0.488886
vn -0.912574 -0.006773 -0.408855
v -0.286293 -0.296833 0.117505
vn 0.552573 0.832968 0.028747
v 0.172454 0.172111 0.008744
vn 0.428508 0.201869 0.880699
v 0.068796 0.172666 0.215883
vn -0.945627 0.219105 -0.240380
v -0.123852 0.261101 -0.139319
vn 0.366355 -0.926571 0.085151
v 0.273211 -0.440328 -0.178639
vn -0.719424 0.479532 -0.502472
v 0.265618 0.479827 -0.030845
vn -0.031606 0.266747 -0.963248
v -0.513149 0.307740 -0.038170
vn 0.561450 0.814062 0.148581
v 0.061817 0.317443 0.060048
vn 0.664579 0.654487 0.360529
v 0.093434 0.268814 0.120271
vn 0.464232 0.810790 0.356523
v 0.192797 -0.067175 -0.023024
vn 0.949521 0.127834 0.286474
v 0.256470 -0.158214 -0.135105
vn -0.155056 -0.215540 0.964106
v -0.051510 -0.131903 0.179138
vn -0.708788 0.588604 -0.388799
v -0.515652 0.364362 -0.072323
vn -0.925515 0.074846 0.371242
v -0.201452 0.119499 0.111618
vn 0.993878 0.078613 -0.077624
v 0.313493 -0.428960 -0.255624
vn -0.755294 -0.147082 -0.638669
v -0.546847 0.295347 -0.046632
vn 0.988184 -0.104520 -0.112104
v -0.142128 -0.348734 0.256625
vn 0.584611 -0.030148 -0.810754
v 0.128862 0.153712 -0.098900
vn 0.557105 0.076288 -0.826930
v 0.142917 0.129579 -0.080579
vn 0.826793 0.561736 -0.029422
v 0.150978 0.210594 0.041618
vn -0.742556 -0.580159 -0.334702
v -0.154979 -0.033296 -0.034314
vn -0.295701 -0.282710 0.912489
v -0.290176 0.100573 0.059904
vn 0.260031 0.659445 0.705348
v 0.066234 0.437170 -0.124849
vn -0.214689 -0.481042 0.850004
v 0.064077 -0.222786 0.280577
vn 0.967686 -0.077587 0.239926
v -0.161351 -0.339785 0.364994
vn -0.775610 0.528265 0.345493
v -0.510518 0.342603 -0.001460
vn 0.339186 0.774267 -0.534288
v -0.364014 0.285715 -0.036924
vn -0.839816 -0.514195 -0.174105
v -0.297902 -0.365194 0.246472
vn 0.193243 0.920389 0.339914
v 0.072854 -0.195489 0.254612
vn -0.693143 0.709831 0.125268
v -0.353349 -0.369455 0.488506
vn 0.134595 0.204446 0.969580
v -0.150447 -0.233380 0.194129
vn 0.499871 -0.860961 -0.094206
v 0.274289 0.043384 -0.015480
vn -0.418057 0.789866 -0.448709
v -0.484823 0.385663 -0.027026
vn 0.244663 0.561832 -0.790244
v -0.031498 0.227989 -0.323233
vn -0.770634 0.303358 -0.560444
v -0.089618 0.220324 -0.231518
vn -0.787511 0.229163 -0.572111
v 0.260251 0.430740 0.004264
vn 0.696175 0.391829 -0.601507
v 0.367824 0.408934 -0.049897
vn 0.739006 0.444376 0.506359
v 0.176894 0.144745 0.067860
vn 0.806494 0.521640 -0.278316
v 0.076470 0.271747 -0.067293
vn -0.889752 0.247498 0.383519
v -0.525988 0.296865 0.006720
vn 0.686942 -0.426295 0.588544
v 0.124379 -0.003648 0.150497
vn 0.271323 -0.961215 0.049494
v 0.004056 -0.222036 0.074163
vn 0.250446 -0.603056 -0.757364
v -0.012404 0.184621 -0.313749
vn 0.322177 -0.068742 -0.944180
v 0.072982 0.121143 -0.116659
vn 0.025327 0.997555 0.065133
v -0.230588 -0.267638 0.227288
vn 0.405340 0.910493 0.081866
v -0.195366 -0.262344 0.291184
vn -0.232415 0.314176 -0.920476
v 0.321243 0.310432 -0.042332
vn 0.842359 0.532605 0.082235
v -0.162061 -0.296115 0.229786
vn -0.964359 -0.196156 -0.177580
v 0.138725 -0.309293 -0.166157
vn -0.381375 -0.824347 0.418337
v -0.375048 0.103339 0.012134
vn -0.723079 0.689093 0.048037
v -0.128263 0.279537 0.002085
vn 0.317398 0.224752 -0.921274
v -0.484457 0.341429 -0.021143
vn -0.368589 -0.432199 -0.823010
v -0.066981 -0.188102 -0.042089
vn -0.727318 -0.424495 -0.539271
v -0.077357 0.176526 -0.288588
vn 0.895069 0.442394 0.056032
v -0.181439 -0.316549 0.423505
vn -0.626513 -0.063316 0.776835
v -0.098327 -0.099888 0.162131
vn -0.133315 0.433413 -0.891280
v 0.331018 0.416852 -0.030357
vn -0.114928 0.167011 -0.979234
v -0.454130 0.253173 -0.034815
vn -0.881676 0.425694 0.203546
v -0.201565 0.181920 0.079971
vn 0.630393 -0.312151 0.710750
v 0.152509 -0.171158 0.062665
vn -0.434196 0.674898 0.596647
v -0.483667 0.355846 0.024116
vn 0.428507 0.893808 -0.132244
v -0.427469 0.403231 0.010165
vn -0.528395 0.408042 -0.744514
v -0.077287 0.272892 -0.243828
vn -0.585310 -0.657405 -0.474584
v 0.174030 -0.440758 -0.247918
vn 0.707480 0.700675 -0.092340
v -0.392240 0.298422 0.006190
vn 0.719930 0.325787 0.612832
v 0.118372 0.195098 0.170690
vn 0.162364 -0.172868 -0.971470
v 0.033348 -0.085621 -0.065370
vn 0.848980 0.068581 -0.523956
v 0.016890 0.197010 -0.294359
vn 0.877474 0.388438 0.281346
v 0.154360 0.196766 0.102220
vn -0.980976 0.114810 -0.156542
v 0.129413 -0.242702 -0.169762
vn 0.785271 0.611548 0.096733
v 0.360621 0.408953 -0.016123
vn 0.687001 -0.439901 0.578374
v -0.147035 -0.309356 0.176260
vn -0.744911 0.234863 -0.624457
v 0.164952 -0.362947 -0.172304
vn -0.040090 -0.959862 -0.277594
v 0.055637 -0.220772 -0.008684
vn 0.201673 0.529740 -0.823835
v -0.420780 0.294368 -0.020036
vn 0.071785 0.359815 -0.930258
v 0.321548 0.233346 -0.091917
vn -0.407480 -0.058599 -0.911332
v 0.287076 0.421809 -0.010349
vn 0.187389 0.787507 -0.587127
v -0.451248 0.369583 -0.002052
vn 0.157976 0.768804 -0.619664
v -0.023403 0.236912 -0.262825
vn -0.412428 -0.024054 0.910673
v -0.098544 0.107338 0.225690
vn -0.654531 0.744543 -0.131322
v -0.296814 -0.331843 0.466065
vn 0.545240 0.796030 0.262773
v -0.120625 0.437294 -0.146655
vn 0.037794 -0.929246 -0.367523
v 0.041020 -0.228311 0.120183
vn -0.604771 0.612611 -0.508880
v -0.211227 0.168538 -0.049280
vn 0.407657 -0.680909 0.608423
v 0.213855 0.033351 0.043756
vn 0.247726 0.387744 -0.887855
v 0.228728 -0.124895 -0.265295
vn 0.528047 0.747730 -0.402575
v 0.325360 0.452046 -0.021638
vn -0.919540 -0.380905 -0.096736
v -0.148941 -0.055060 0.027937
vn 0.107560 -0.736176 -0.668188
v 0.203010 0.044898 -0.064798
vn -0.997855 0.063563 -0.015634
v -0.289964 -0.350878 0.403274
vn -0.824380 -0.184653 -0.535071
v 0.161376 -0.187324 -0.204615
vn -0.723563 0.425903 0.543198
v -0.144132 0.214759 0.153257
vn -0.680118 0.596992 -0.425488
v 0.181515 -0.389489 -0.251697
vn 0.218503 0.603900 -0.766525
v -0.064055 0.326776 -0.184378
vn 0.540997 0.436670 0.718778
v 0.337151 0.394170 0.033653
vn 0.919437 0.041397 -0.391052
v 0.056787 0.219680 -0.190103
vn 0.933388 0.127902 0.335302
v 0.364837 0.291305 0.010752
vn 0.176413 -0.854471 -0.488628
v -0.226431 -0.373974 0.183064
vn 0.786186 0.225659 -0.575317
v 0.046841 0.289835 -0.179048
vn 0.064931 0.472677 -0.878840
v 0.048629 0.405631 -0.189498
vn -0.550374 0.834786 -0.014860
v 0.049284 0.436963 -0.147348
vn 0.195155 0.972956 0.123581
v -0.010490 0.354170 -0.004697
vn -0.021243 -0.864641 -0.501940
v -0.034752 0.123147 -0.231879
vn 0.582652 -0.738142 -0.340091
v 0.001549 0.136133 -0.226913
vn -0.702468 0.682439 0.202028
v -0.125824 0.286940 0.065284
vn 0.191759 0.814332 0.547806
v -0.069862 0.351565 -0.120542
vn 0.813252 -0.571086 0.111720
v 0.071729 -0.193789 0.105613
vn 0.948175 -0.069246 -0.310111
v 0.116425 -0.045655 0.010948
vn 0.627046 -0.368727 0.686187
v 0.288231 0.073294 0.031465
vn 0.169568 0.429151 0.887173
v -0.412976 0.284388 0.051040
vn -0.449654 -0.822279 -0.348811
v 0.108823 -0.205737 -0.111672
vn 0.702821 0.372401 0.606103
v 0.149703 -0.117964 0.058224
vn 0.425676 -0.648945 0.630611
v -0.037812 -0.224042 0.133567
vn 0.954656 -0.256599 0.150958
v 0.092603 -0.226189 0.218561
vn -0.911578 0.393473 -0.119185
v 0.012470 0.378758 -0.168894
vn -0.877841 -0.463136 -0.122064
v -0.459518 0.154806 -0.005138
vn 0.770503 0.353860 -0.530196
v 0.364824 0.278811 -0.054214
vn -0.633948 0.335560 -0.696785
v -0.070916 0.212262 -0.314244
vn -0.432727 -0.126175 -0.892652
v -0.113417 0.379369 -0.197595
vn -0.437829 0.497664 -0.748756
v 0.286622 0.253040 -0.054595
vn 0.662414 -0.632324 0.401714
v 0.202586 -0.191581 -0.012072
vn -0.864484 -0.197539 -0.462218
v -0.094459 0.345600 -0.158489
vn -0.951873 -0.302391 0.049983
v 0.114192 -0.450941 -0.084974
vn 0.038908 0.997169 -0.064336
v 0.172298 -0.052895 -0.103803
vn 0.075007 0.076568 0.994239
v 0.002418 0.131321 0.239338
vn -0.931350 0.152696 -0.330563
v 0.139061 -0.402173 -0.157380
vn -0.475454 -0.749789 0.460173
v -0.430156 0.132042 0.049400
vn -0.143461 -0.350778 -0.925405
v -0.034825 -0.100535 -0.081082
vn -0.584859 -0.392364 0.709922
v -0.120484 -0.003641 0.186527
vn 0.490397 -0.827331 -0.273923
v 0.076109 -0.251136 0.157121
vn -0.975904 0.021552 0.217133
v -0.141380 -0.083539 0.088477
vn -0.812742 0.366184 -0.453167
v 0.236110 0.239438 -0.037946
vn -0.308838 -0.443859 -0.841195
v -0.338353 0.112832 -0.067656
vn -0.462197 0.235534 0.854926
v 0.172508 -0.313035 -0.081538
vn 0.553854 0.565345 -0.611254
v -0.092929 0.395689 -0.189174
vn 0.525716 0.672543 0.520873
v -0.300076 0.180995 0.016785
vn 0.509615 -0.326780 -0.795932
v 0.134736 0.058920 -0.082311
vn 0.540172 -0.806995 -0.238691
v -0.229649 -0.392048 0.419034
vn -0.488313 0.023833 -0.872343
v -0.437290 0.199622 -0.066084
vn 0.186313 -0.127260 0.974214
v 0.028661 -0.167926 0.161503
vn -0.425972 0.316840 0.847444
v -0.089287 0.180522 0.214575
vn -0.244457 0.840984 -0.482687
v 0.002200 0.334248 -0.168942
vn -0.951014 -0.127194 -0.281771
v -0.106138 0.213711 -0.210163
vn -0.852713 0.511973 0.103751
v -0.290708 -0.288216 0.307550
vn -0.827435 0.172857 -0.534296
v -0.095258 0.311788 -0.186248
vn -0.977555 -0.099088 0.185924
v 0.247894 0.382103 0.027796
vn 0.997284 0.068703 0.026551
v 0.083824 0.364090 -0.135683
vn 0.027238 -0.121186 -0.992256
v -0.354398 0.152410 -0.084057
vn 0.990996 0.133489 0.010340
v 0.239566 -0.375746 -0.156983
vn -0.466723 -0.844471 -0.262754
v 0.155065 -0.451450 -0.178309
vn 0.148164 0.776989 0.611829
v 0.288441 0.442319 0.021966
vn -0.671025 0.585614 -0.454733
v -0.177949 -0.158357 0.051727
vn 0.610453 0.651316 0.450704
v -0.360365 0.270238 0.032278
vn 0.569335 -0.815706 -0.102381
v -0.049843 -0.266577 0.077605
vn -0.854796 -0.251466 0.453970
v -0.137634 0.342464 -0.131796
vn 0.898295 -0.269493 0.347044
v 0.228737 -0.146568 -0.019025
vn 0.570791 -0.083346 0.816855
v 0.104777 0.102059 0.201497
vn -0.075798 0.043993 0.996152
v 0.280459 0.361348 0.059479
vn 0.916373 0.284784 0.281353
v 0.245792 -0.107130 -0.077624
vn 0.048369 0.917837 -0.394000
v 0.203368 -0.069450 -0.177250
vn 0.227156 0.319780 0.919859
v -0.399032 0.230875 0.087001
vn -0.639189 -0.022725 0.768714
v 0.284034 0.302455 0.036084
vn -0.533332 -0.780610 0.325891
v 0.006428 -0.214423 0.143682
vn 0.454346 0.478125 -0.751642
v -0.315885 0.213449 -0.058388
vn 0.481512 0.570375 -0.665446
v -0.284579 0.179446 -0.050454
vn 0.110821 0.429426 0.896277
v -0.230814 -0.306813 0.519156
vn -0.293057 0.007573 -0.956065
v 0.282142 0.164018 -0.108893
vn 0.871443 0.466802 0.150612
v -0.289246 0.195324 -0.015699
vn -0.429677 -0.327188 -0.841621
v -0.123361 0.170011 -0.119121
vn 0.316007 -0.881577 0.350658
v 0.122712 -0.221472 0.028338
vn -0.295872 0.277410 0.914059
v -0.114383 -0.149414 0.151615
vn -0.820542 0.257224 -0.510438
v 0.269858 0.314458 -0.010103
vn -0.033987 0.669382 0.742141
v -0.214759 -0.247233 0.200075
vn 0.630475 -0.430216 -0.646077
v 0.337670 0.124619 -0.083496
vn 0.863057 -0.466074 0.194699
v 0.148317 -0.011608 0.106689
vn 0.462927 -0.777745 0.425218
v 0.191795 -0.462013 -0.087661
vn -0.781915 -0.344948 0.519249
v -0.198600 0.051136 0.086530
vn -0.030483 -0.335361 -0.941596
v -0.080367 -0.008318 -0.128100
vn -0.388438 0.324858 0.862313
v 0.029271 0.351537 -0.117839
vn 0.486517 0.845574 0.219785
v -0.178515 -0.295233 0.487759
vn -0.098611 -0.194957 0.975842
v 0.138421 -0.451397 -0.038157
vn 0.134166 0.929394 0.343840
v 0.005466 0.332976 0.078146
vn -0.710318 -0.045476 0.702410
v -0.455811 0.200062 0.073818
vn 0.593963 -0.519612 -0.614175
v 0.017670 0.147832 -0.152056
vn 0.842972 -0.511788 0.165744
v 0.378170 0.158396 0.006155
vn 0.870413 -0.084170 -0.485075
v 0.370455 0.177040 -0.057670
vn 0.869752 0.472004 0.144028
v -0.165661 -0.300255 0.330278
vn -0.135484 0.040057 -0.989969
v -0.105692 0.057773 -0.135161
vn 0.518756 -0.278231 0.808381
v 0.208474 -0.206040 -0.097212
vn 0.674163 0.302935 0.673598
v -0.338080 0.215344 0.046528
vn 0.769054 -0.175530 -0.614610
v 0.063370 0.212496 -0.128927
vn -0.136748 -0.340790 -0.930141
v -0.288212 0.085881 -0.077184
vn 0.410730 0.212210 0.886717
v 0.249546 -0.220383 -0.099856
vn 0.786533 0.120179 -0.605742
v 0.267676 -0.179773 -0.236922
vn 0.224336 0.092158 0.970145
v 0.321255 0.295892 0.038235
vn 0.978338 0.205997 -0.020480
v 0.056692 0.283003 -0.127186
vn -0.164735 -0.928532 0.332701
v 0.168478 -0.226725 -0.102418
vn -0.821757 -0.048022 -0.567811
v -0.128139 0.214217 -0.131213
vn 0.902220 0.180759 0.391567
v 0.389543 0.239038 0.023256
vn -0.946474 -0.201979 0.251777
v 0.146965 -0.215057 -0.130946
vn 0.486913 0.869779 -0.079998
v 0.019144 0.325538 -0.097444
vn -0.943204 0.247412 0.221706
v -0.104272 0.306494 -0.132384
vn -0.021811 -0.178220 -0.983749
v -0.029125 0.076591 -0.129190
vn -0.373592 -0.868323 -0.326257
v -0.040946 0.126713 -0.162190
vn -0.574714 -0.315045 -0.755281
v -0.150812 0.033879 -0.119089
vn 0.549238 -0.718593 0.426569
v 0.162710 0.029932 0.060687
vn 0.758712 0.153601 0.633058
v 0.206062 -0.118297 0.021171
vn 0.624993 0.777110 -0.074057
v 0.273442 -0.385599 -0.215219
vn -0.455211 0.097837 -0.884992
v -0.180311 0.151704 -0.099017
vn -0.657695 -0.174116 -0.732885
v 0.158503 -0.255080 -0.216858
vn -0.744777 0.651269 -0.145452
v -0.082216 0.321053 -0.085819
vn 0.550874 -0.086018 -0.830144
v 0.102997 0.060501 -0.121658
vn -0.868954 0.257786 0.422452
v 0.250345 0.273277 0.014376
vn -0.526959 0.064390 0.847448
v 0.283858 0.223688 0.052508
vn 0.036095 -0.404845 -0.913673
v -0.027200 -0.010492 -0.114480
vn 0.086795 0.182072 0.979447
v -0.319765 0.159790 0.044099
vn -0.810504 -0.089100 -0.578916
v -0.271572 -0.273463 0.074123
vn 0.455767 0.063571 0.887826
v 0.240262 0.112424 0.053581
vn 0.163768 -0.204614 0.965046
v -0.063592 -0.185998 0.161012
vn 0.754190 -0.648917 0.100525
v -0.162706 -0.378707 0.298639
vn -0.466440 0.859038 -0.210919
v -0.075418 0.351645 -0.072420
vn -0.451809 -0.398663 0.798083
v -0.087723 -0.034788 0.185516
vn 0.088870 -0.857035 0.507536
v -0.306352 -0.462171 0.469963
vn -0.458299 -0.325686 0.826977
v -0.334865 0.097779 0.050170
vn -0.672886 0.643778 0.364382
v -0.275273 -0.294189 0.384680
vn -0.343692 0.128552 -0.930242
v -0.211137 0.120212 -0.078226
vn -0.684745 0.657712 0.313911
v 0.235086 0.159686 -0.011069
vn -0.142273 -0.281755 0.948880
v -0.050355 0.016738 0.220984
vn 0.320432 0.536223 0.780889
v 0.047780 0.236371 0.200689
vn -0.772295 0.589863 -0.235845
v -0.146381 0.262492 -0.036853
vn 0.520983 0.678341 -0.518104
v 0.168473 0.163314 -0.039593
vn -0.847563 0.474991 -0.236687
v -0.135096 0.246478 -0.086048
vn 0.445610 0.857991 -0.255507
v 0.024579 0.350753 -0.065904
vn -0.808406 0.299522 0.506722
v 0.032662 -0.216934 0.196675
vn -0.471895 -0.473386 0.743788
v -0.374415 -0.505904 0.467524
vn 0.271180 -0.599458 -0.753068
v 0.252798 0.069099 -0.083590
vn -0.637670 0.412021 0.650858
v -0.207568 0.147300 0.068888
vn -0.369888 0.883353 0.287872
v -0.242231 -0.288698 0.411293
vn -0.977590 0.184161 0.101992
v 0.141999 -0.355749 -0.108427
vn 0.345312 0.796973 0.495575
v 0.040784 0.292309 0.140403
vn -0.607818 0.244223 -0.755588
v -0.218049 -0.219796 0.023333
vn -0.366231 -0.589458 -0.720010
v -0.089039 -0.053637 -0.092090
vn -0.545985 0.403795 -0.734064
v 0.235011 0.147212 -0.058330
vn -0.944021 0.198261 -0.263660
v -0.145820 -0.113475 0.040139
vn -0.085923 0.389428 -0.917040
v 0.212624 -0.401869 -0.311909
vn -0.126444 -0.718692 -0.683735
v 0.229935 -0.426484 -0.271749
vn 0.685929 -0.719747 -0.107079
v 0.313714 0.092331 -0.033436
vn -0.702642 -0.382593 -0.599931
v -0.094819 -0.085829 -0.050593
vn -0.036511 -0.882164 -0.469525
v -0.304564 -0.522366 0.447164
vn 0.627934 -0.338883 0.700612
v 0.359183 0.189623 0.055194
vn 0.101243 -0.166820 -0.980776
v 0.209418 -0.348619 -0.190929
vn 0.746600 -0.584315 0.318064
v -0.217864 -0.403037 0.483781
vn 0.456127 -0.566366 0.686424
v 0.324742 0.121442 0.018000
vn -0.357294 0.895663 0.264818
v -0.248245 -0.293224 0.493140
vn -0.540215 -0.669393 -0.509982
v -0.288341 -0.349478 0.142487
vn -0.357908 -0.662666 -0.657857
v -0.234002 -0.318376 0.070580
vn -0.201610 -0.365513 -0.908710
v -0.174150 -0.269050 0.009976
vn 0.031269 0.998236 0.050475
v -0.218553 -0.292506 0.440050
vn -0.757822 0.001650 -0.652459
v 0.151872 -0.144720 -0.210675
vn 0.315936 -0.491393 -0.811614
v 0.285679 -0.417705 -0.323863
vn -0.598443 0.579029 -0.553707
v 0.157653 -0.094933 -0.197364
vn 0.111377 -0.473116 -0.873932
v 0.006221 -0.194149 -0.047525
vn -0.318574 0.668542 0.671984
v -0.199375 -0.177918 0.161992
vn -0.999734 -0.016268 0.016328
v -0.304582 -0.324359 0.257870
vn -0.757233 0.596077 0.267003
v -0.273291 -0.251303 0.167213
vn -0.381497 -0.144021 -0.913082
v -0.297847 -0.421035 0.427450
vn -0.738688 -0.673731 -0.020639
v -0.194370 0.018787 0.004231
vn 0.861330 -0.043145 0.506210
v 0.164835 0.103131 0.118101
vn -0.997439 -0.020597 -0.068494
v -0.315110 -0.322194 0.166675
vn -0.563773 -0.333318 -0.755685
v 0.046541 -0.177544 -0.068682
vn -0.399981 0.877797 0.263604
v -0.072992 0.326180 0.077958
vn -0.818650 0.143247 -0.556140
v 0.088884 -0.130526 -0.127682
vn -0.333869 0.734302 -0.591042
v 0.078524 -0.084443 -0.064761
vn -0.784828 0.020162 0.619385
v -0.175482 0.117088 0.156763
vn 0.082618 -0.317969 -0.944495
v -0.010055 -0.154424 -0.070503
vn 0.466027 -0.285239 0.837530
v 0.063850 -0.022561 0.183662
vn -0.277218 0.959979 0.039887
v -0.247632 -0.252965 0.288477
vn -0.336524 0.583789 -0.738879
v 0.197059 -0.120751 -0.251100
vn -0.383233 -0.169014 -0.908057
v -0.361428 -0.481253 0.436642
vn -0.545104 -0.821337 -0.168129
v -0.274491 -0.379597 0.202322
vn -0.419018 0.007822 -0.907944
v -0.149725 -0.200625 0.001019
vn -0.723376 0.079306 -0.685884
v -0.113082 -0.134593 -0.021421
vn -0.992249 -0.075672 -0.098572
v -0.400684 -0.448922 0.475346
vn -0.431200 -0.080497 -0.898659
v 0.197255 -0.179920 -0.252108
vn -0.850412 -0.403219 0.337955
v -0.181473 0.010303 0.122160
vn 0.760516 0.593667 -0.263011
v 0.133539 0.202781 -0.027551
vn 0.409777 -0.837100 -0.362419
v -0.182469 -0.384585 0.208599
vn 0.347460 -0.543760 0.763935
v -0.259220 -0.455987 0.473491
vn 0.744911 -0.565578 -0.353878
v -0.240827 -0.441705 0.443303
vn -0.352150 -0.916593 0.189332
v -0.267723 0.036676 0.023359
vn 0.162193 -0.651310 -0.741275
v -0.076817 -0.242208 0.003358
vn 0.163151 -0.943612 -0.288059
v -0.034434 -0.233964 0.016144
vn 0.552769 -0.822315 0.135071
v -0.097170 -0.302332 0.112369
vn -0.643731 -0.762067 0.069739
v -0.280431 -0.386430 0.301922
vn -0.333742 -0.166768 0.927796
v -0.347891 -0.387298 0.516027
vn 0.172083 -0.984980 -0.014192
v 0.195497 0.016747 -0.000144
vn -0.235679 -0.679484 -0.694807
v -0.255259 -0.389342 0.409379
vn -0.065989 -0.407468 0.910832
v -0.325953 -0.427867 0.491032
vn 0.336590 0.819366 -0.464056
v 0.271266 -0.394612 -0.294801
vn 0.114930 0.910609 -0.396965
v 0.214689 -0.373828 -0.216026
vn -0.078469 -0.742286 -0.665473
v -0.025053 -0.228935 -0.033725
vn 0.933281 -0.352462 0.068975
v 0.264637 -0.329759 -0.142659
vn -0.032040 -0.275660 0.960721
v -0.024581 -0.031334 0.202732
vn -0.818850 -0.473510 0.324456
v -0.154495 -0.021279 0.112101
vn -0.218555 -0.972807 -0.076688
v -0.236609 -0.399747 0.296285
vn 0.834044 0.246189 0.493722
v 0.270343 -0.404392 -0.176442
vn 0.165332 -0.982208 0.089068
v -0.203440 -0.402208 0.328974
vn 0.748483 -0.058822 -0.660541
v 0.092059 -0.059603 -0.032576
vn 0.661852 -0.709912 -0.240784
v 0.153039 0.016193 -0.010618
vn 0.570205 -0.757731 -0.317348
v 0.267553 -0.433081 -0.250062
vn 0.222928 -0.847261 -0.482133
v -0.146649 -0.312552 0.046378
vn -0.636107 0.770247 -0.045688
v -0.214409 -0.158856 0.102725
vn -0.871630 0.440605 -0.214775
v -0.260197 -0.212172 0.091532
# 377 vertices, 0 vertices normals

f 338//338 205//205 156//156
f 304//304 72//72 246//246
f 196//196 307//307 291//291
f 79//79 374//374 272//272
f 113//113 274//274 137//137
f 274//274 155//155 348//348
f 348//348 49//49 274//274
f 198//198 48//48 62//62
f 224//224 2//2 27//27
f 101//101 135//135 4//4
f 238//238 41//41 231//231
f 14//14 118//118 167//167
f 158//158 127//127 209//209
f 361//361 202//202 353//353
f 251//251 110//110 119//119
f 230//230 318//318 63//63
f 48//48 245//245 26//26
f 371//371 202//202 361//361
f 187//187 190//190 214//214
f 153//153 96//96 360//360
f 96//96 300//300 311//311
f 83//83 201//201 276//276
f 41//41 8//8 307//307
f 126//126 129//129 142//142
f 106//106 218//218 356//356
f 349//349 193//193 338//338
f 261//261 264//264 198//198
f 348//348 323//323 342//342
f 210//210 236//236 226//226
f 74//74 271//271 223//223
f 98//98 143//143 132//132
f 339//339 131//131 326//326
f 327//327 235//235 11//11
f 151//151 159//159 135//135
f 360//360 149//149 270//270
f 72//72 166//166 246//246
f 333//333 344//344 43//43
f 219//219 12//12 186//186
f 130//130 67//67 221//221
f 78//78 156//156 123//123
f 62//62 48//48 26//26
f 257//257 62//62 50//50
f 129//129 139//139 142//142
f 352//352 353//353 316//316
f 24//24 279//279 61//61
f 279//279 192//192 306//306
f 198//198 257//257 253//253
f 138//138 261//261 234//234
f 157//157 364//364 309//309
f 188//188 2//2 224//224
f 281//281 377//377 305//305
f 301//301 25//25 200//200
f 100//100 215//215 70//70
f 100//100 141//141 236//236
f 79//79 69//69 374//374
f 257//257 50//50 19//19
f 181//181 140//140 111//111
f 299//299 287//287 362//362
f 54//54 337//337 372//372
f 170//170 266//266 275//275
f 262//262 68//68 207//207
f 37//37 219//219 170//170
f 170//170 206//206 158//158
f 100//100 210//210 51//51
f 364//364 137//137 315//315
f 317//317 173//173 311//311
f 245//245 48//48 187//187
f 43//43 329//329 333//333
f 279//279 267//267 61//61
f 306//306 192//192 312//312
f 299//299 362//362 45//45
f 102//102 34//34 66//66
f 368//368 193//193 349//349
f 127//127 158//158 10//10
f 338//338 156//156 78//78
f 267//267 248//248 108//108
f 374//374 69//69 310//310
f 258//258 19//19 59//59
f 288//288 33//33 86//86
f 197//197 17//17 33//33
f 21//21 16//16 340//340
f 34//34 282//282 173//173
f 331//331 152//152 368//368
f 282//282 38//38 149//149
f 29//29 204//204 21//21
f 199//199 170//170 158//158
f 322//322 119//119 110//110
f 332//332 133//133 130//130
f 189//189 205//205 144//144
f 90//90 104//104 15//15
f 118//118 182//182 107//107
f 280//280 301//301 200//200
f 351//351 23//23 81//81
f 23//23 162//162 39//39
f 90//90 116//116 77//77
f 340//340 16//16 105//105
f 116//116 142//142 139//139
f 142//142 116//116 97//97
f 77//77 116//116 71//71
f 332//332 130//130 221//221
f 239//239 270//270 332//332
f 190//190 137//137 157//157
f 124//124 271//271 176//176
f 261//261 253//253 185//185
f 283//283 95//95 136//136
f 151//151 141//141 70//70
f 182//182 98//98 107//107
f 120//120 195//195 11//11
f 129//129 217//217 91//91
f 33//33 17//17 354//354
f 263//263 181//181 161//161
f 234//234 185//185 124//124
f 175//175 138//138 334//334
f 143//143 182//182 99//99
f 203//203 122//122 91//91
f 154//154 6//6 145//145
f 351//351 162//162 23//23
f 76//76 120//120 235//235
f 137//137 274//274 315//315
f 322//322 145//145 318//318
f 305//305 376//376 216//216
f 255//255 57//57 160//160
f 81//81 251//251 89//89
f 119//119 53//53 89//89
f 7//7 13//13 60//60
f 125//125 90//90 15//15
f 366//366 19//19 50//50
f 329//329 376//376 377//377
f 327//327 376//376 329//329
f 331//331 85//85 152//152
f 173//173 282//282 149//149
f 34//34 102//102 282//282
f 280//280 86//86 301//301
f 80//80 30//30 58//58
f 298//298 227//227 28//28
f 227//227 298//298 204//204
f 234//234 171//171 106//106
f 178//178 93//93 88//88
f 54//54 74//74 188//188
f 138//138 365//365 326//326
f 156//156 205//205 60//60
f 283//283 204//204 76//76
f 204//204 3//3 171//171
f 25//25 301//301 123//123
f 332//332 221//221 105//105
f 189//189 46//46 221//221
f 113//113 303//303 264//264
f 356//356 138//138 106//106
f 151//151 135//135 121//121
f 84//84 73//73 133//133
f 297//297 166//166 9//9
f 323//323 336//336 325//325
f 130//130 133//133 73//73
f 55//55 85//85 331//331
f 129//129 174//174 217//217
f 308//308 346//346 216//216
f 204//204 29//29 76//76
f 359//359 94//94 347//347
f 286//286 193//193 368//368
f 159//159 222//222 4//4
f 102//102 66//66 84//84
f 22//22 21//21 204//204
f 3//3 93//93 178//178
f 22//22 124//124 176//176
f 63//63 64//64 230//230
f 232//232 217//217 254//254
f 247//247 225//225 174//174
f 259//259 47//47 263//263
f 174//174 15//15 35//35
f 343//343 330//330 287//287
f 43//43 237//237 329//329
f 258//258 75//75 19//19
f 137//137 190//190 303//303
f 352//352 316//316 63//63
f 206//206 10//10 158//158
f 42//42 61//61 276//276
f 323//323 155//155 336//336
f 57//57 107//107 132//132
f 98//98 132//132 107//107
f 82//82 40//40 295//295
f 370//370 79//79 272//272
f 167//167 268//268 14//14
f 254//254 217//217 225//225
f 125//125 97//97 90//90
f 357//357 375//375 218//218
f 163//163 164//164 52//52
f 182//182 118//118 99//99
f 71//71 80//80 104//104
f 174//174 20//20 15//15
f 139//139 122//122 116//116
f 244//244 119//119 322//322
f 107//107 57//57 167//167
f 296//296 275//275 266//266
f 136//136 95//95 237//237
f 377//377 281//281 65//65
f 224//224 27//27 342//342
f 80//80 71//71 122//122
f 355//355 356//356 218//218
f 127//127 143//143 99//99
f 44//44 347//347 94//94
f 15//15 20//20 125//125
f 53//53 371//371 284//284
f 163//163 52//52 211//211
f 213//213 272//272 364//364
f 363//363 374//374 324//324
f 220//220 75//75 223//223
f 264//264 175//175 155//155
f 148//148 25//25 5//5
f 193//193 144//144 338//338
f 167//167 57//57 168//168
f 271//271 185//185 220//220
f 138//138 234//234 106//106
f 234//234 261//261 185//185
f 223//223 75//75 2//2
f 222//222 51//51 210//210
f 237//237 43//43 109//109
f 160//160 132//132 143//143
f 3//3 194//194 171//171
f 237//237 327//327 329//329
f 303//303 113//113 137//137
f 232//232 228//228 91//91
f 30//30 122//122 203//203
f 133//133 102//102 84//84
f 269//269 252//252 242//242
f 66//66 291//291 295//295
f 325//325 224//224 342//342
f 305//305 321//321 320//320
f 174//174 225//225 217//217
f 354//354 86//86 33//33
f 375//375 39//39 320//320
f 344//344 369//369 92//92
f 176//176 21//21 22//22
f 23//23 136//136 112//112
f 283//283 136//136 177//177
f 358//358 361//361 154//154
f 44//44 145//145 6//6
f 189//189 67//67 293//293
f 41//41 300//300 8//8
f 111//111 141//141 121//121
f 198//198 264//264 303//303
f 129//129 91//91 139//139
f 58//58 104//104 80//80
f 108//108 248//248 82//82
f 4//4 36//36 101//101
f 227//227 177//177 106//106
f 104//104 90//90 77//77
f 118//118 107//107 167//167
f 213//213 50//50 26//26
f 302//302 145//145 322//322
f 257//257 198//198 62//62
f 174//174 129//129 20//20
f 233//233 267//267 273//273
f 331//331 354//354 55//55
f 180//180 203//203 32//32
f 358//358 371//371 361//361
f 204//204 298//298 3//3
f 258//258 348//348 150//150
f 321//321 355//355 375//375
f 122//122 71//71 116//116
f 51//51 215//215 100//100
f 64//64 63//63 316//316
f 372//372 373//373 172//172
f 120//120 367//367 286//286
f 323//323 348//348 155//155
f 196//196 291//291 277//277
f 247//247 174//174 35//35
f 5//5 123//123 115//115
f 88//88 298//298 28//28
f 128//128 190//190 157//157
f 303//303 190//190 187//187
f 221//221 67//67 189//189
f 105//105 239//239 332//332
f 186//186 12//12 183//183
f 171//171 22//22 204//204
f 121//121 141//141 151//151
f 81//81 112//112 251//251
f 251//251 112//112 110//110
f 183//183 199//199 158//158
f 291//291 278//278 277//277
f 71//71 104//104 77//77
f 2//2 188//188 74//74
f 3//3 298//298 93//93
f 332//332 102//102 133//133
f 20//20 126//126 142//142
f 31//31 165//165 87//87
f 215//215 51//51 222//222
f 215//215 222//222 159//159
f 349//349 338//338 241//241
f 367//367 120//120 76//76
f 358//358 328//328 92//92
f 76//76 235//235 283//283
f 234//234 22//22 171//171
f 114//114 288//288 280//280
f 165//165 31//31 164//164
f 57//57 132//132 160//160
f 126//126 20//20 129//129
f 187//187 48//48 303//303
f 145//145 44//44 94//94
f 243//243 87//87 165//165
f 183//183 158//158 209//209
f 332//332 270//270 38//38
f 310//310 69//69 128//128
f 88//88 93//93 298//298
f 10//10 163//163 160//160
f 260//260 160//160 163//163
f 319//319 320//320 162//162
f 123//123 169//169 115//115
f 247//247 180//180 191//191
f 145//145 94//94 63//63
f 354//354 241//241 86//86
f 173//173 317//317 34//34
f 300//300 41//41 311//311
f 236//236 111//111 184//184
f 138//138 326//326 334//334
f 212//212 203//203 228//228
f 168//168 268//268 167//167
f 183//183 12//12 199//199
f 215//215 159//159 151//151
f 70//70 141//141 100//100
f 183//183 209//209 186//186
f 233//233 273//273 262//262
f 139//139 91//91 122//122
f 143//143 127//127 10//10
f 315//315 274//274 49//49
f 196//196 140//140 231//231
f 140//140 238//238 231//231
f 296//296 5//5 294//294
f 195//195 368//368 152//152
f 65//65 329//329 377//377
f 205//205 7//7 60//60
f 182//182 143//143 98//98
f 376//376 327//327 11//11
f 170//170 146//146 37//37
f 261//261 138//138 175//175
f 293//293 73//73 304//304
f 36//36 111//111 101//101
f 161//161 181//181 36//36
f 114//114 191//191 32//32
f 217//217 232//232 91//91
f 36//36 181//181 111//111
f 170//170 275//275 1//1
f 198//198 303//303 48//48
f 10//10 206//206 163//163
f 151//151 70//70 215//215
f 164//164 31//31 52//52
f 41//41 238//238 311//311
f 301//301 78//78 123//123
f 258//258 59//59 49//49
f 160//160 143//143 10//10
f 196//196 277//277 236//236
f 370//370 272//272 213//213
f 219//219 37//37 12//12
f 106//106 171//171 147//147
f 373//373 18//18 172//172
f 30//30 80//80 122//122
f 188//188 224//224 337//337
f 284//284 81//81 89//89
f 253//253 75//75 220//220
f 40//40 350//350 295//295
f 307//307 8//8 295//295
f 101//101 111//111 121//121
f 317//317 249//249 314//314
f 357//357 136//136 39//39
f 104//104 58//58 15//15
f 84//84 66//66 350//350
f 341//341 110//110 109//109
f 211//211 87//87 243//243
f 212//212 32//32 203//203
f 263//263 161//161 259//259
f 372//372 24//24 42//42
f 240//240 245//245 187//187
f 352//352 287//287 313//313
f 97//97 125//125 142//142
f 38//38 282//282 102//102
f 47//47 259//259 278//278
f 255//255 260//260 40//40
f 145//145 63//63 318//318
f 354//354 331//331 241//241
f 212//212 197//197 32//32
f 218//218 177//177 357//357
f 338//338 144//144 205//205
f 56//56 280//280 254//254
f 242//242 279//279 306//306
f 149//149 38//38 270//270
f 56//56 247//247 191//191
f 106//106 177//177 218//218
f 148//148 5//5 296//296
f 358//358 154//154 328//328
f 146//146 170//170 199//199
f 301//301 86//86 241//241
f 227//227 204//204 177//177
f 189//189 292//292 46//46
f 210//210 100//100 236//236
f 6//6 343//343 45//45
f 45//45 359//359 347//347
f 207//207 118//118 14//14
f 114//114 32//32 197//197
f 30//30 35//35 58//58
f 259//259 222//222 226//226
f 228//228 203//203 91//91
f 148//148 296//296 262//262
f 269//269 55//55 290//290
f 165//165 179//179 243//243
f 170//170 1//1 206//206
f 180//180 30//30 203//203
f 209//209 219//219 186//186
f 274//274 113//113 134//134
f 213//213 315//315 59//59
f 206//206 179//179 164//164
f 200//200 25//25 229//229
f 40//40 82//82 255//255
f 260//260 103//103 40//40
f 12//12 146//146 199//199
f 213//213 26//26 370//370
f 240//240 214//214 69//69
f 31//31 87//87 211//211
f 26//26 240//240 370//370
f 339//339 117//117 192//192
f 147//147 227//227 106//106
f 290//290 273//273 269//269
f 209//209 266//266 219//219
f 293//293 7//7 189//189
f 37//37 146//146 12//12
f 275//275 285//285 1//1
f 176//176 74//74 54//54
f 161//161 4//4 259//259
f 291//291 307//307 295//295
f 226//226 277//277 278//278
f 304//304 246//246 13//13
f 250//250 263//263 249//249
f 3//3 178//178 194//194
f 28//28 227//227 194//194
f 124//124 185//185 271//271
f 159//159 4//4 135//135
f 66//66 34//34 291//291
f 265//265 243//243 206//206
f 294//294 115//115 285//285
f 1//1 265//265 206//206
f 263//263 250//250 181//181
f 31//31 211//211 52//52
f 96//96 173//173 149//149
f 229//229 228//228 232//232
f 142//142 125//125 20//20
f 252//252 267//267 242//242
f 197//197 229//229 290//290
f 248//248 57//57 255//255
f 350//350 40//40 103//103
f 275//275 296//296 294//294
f 229//229 197//197 212//212
f 341//341 208//208 289//289
f 83//83 108//108 82//82
f 374//374 363//363 272//272
f 148//148 262//262 273//273
f 4//4 222//222 259//259
f 368//368 195//195 120//120
f 300//300 153//153 8//8
f 140//140 184//184 111//111
f 226//226 236//236 277//277
f 312//312 346//346 308//308
f 292//292 367//367 46//46
f 34//34 47//47 278//278
f 164//164 179//179 165//165
f 180//180 32//32 191//191
f 229//229 212//212 228//228
f 64//64 119//119 244//244
f 11//11 216//216 376//376
f 207//207 14//14 268//268
f 124//124 22//22 234//234
f 54//54 18//18 176//176
f 219//219 266//266 170//170
f 302//302 289//289 154//154
f 154//154 145//145 302//302
f 278//278 259//259 226//226
f 209//209 68//68 266//266
f 304//304 13//13 293//293
f 85//85 55//55 269//269
f 365//365 138//138 356//356
f 221//221 46//46 340//340
f 327//327 237//237 95//95
f 245//245 240//240 26//26
f 18//18 54//54 172//172
f 207//207 99//99 118//118
f 68//68 127//127 207//207
f 164//164 163//163 206//206
f 279//279 242//242 267//267
f 240//240 69//69 370//370
f 8//8 201//201 83//83
f 214//214 128//128 69//69
f 240//240 187//187 214//214
f 322//322 318//318 244//244
f 296//296 68//68 262//262
f 184//184 140//140 196//196
f 366//366 59//59 19//19
f 296//296 266//266 68//68
f 15//15 58//58 35//35
f 8//8 83//83 295//295
f 241//241 78//78 301//301
f 30//30 247//247 35//35
f 180//180 247//247 30//30
f 238//238 140//140 250//250
f 222//222 210//210 226//226
f 350//350 103//103 9//9
f 312//312 85//85 306//306
f 248//248 267//267 268//268
f 42//42 276//276 201//201
f 135//135 101//101 121//121
f 195//195 308//308 11//11
f 331//331 349//349 241//241
f 61//61 108//108 276//276
f 248//248 168//168 57//57
f 273//273 252//252 269//269
f 359//359 63//63 94//94
f 141//141 111//111 236//236
f 193//193 286//286 292//292
f 250//250 140//140 181//181
f 148//148 229//229 25//25
f 161//161 36//36 4//4
f 341//341 302//302 110//110
f 56//56 225//225 247//247
f 112//112 237//237 109//109
f 243//243 260//260 211//211
f 213//213 59//59 366//366
f 2//2 74//74 223//223
f 112//112 81//81 23//23
f 314//314 249//249 263//263
f 190//190 128//128 214//214
f 232//232 254//254 200//200
f 268//268 262//262 207//207
f 233//233 262//262 268//268
f 376//376 305//305 377//377
f 96//96 311//311 173//173
f 249//249 311//311 238//238
f 252//252 273//273 267//267
f 168//168 248//248 268//268
f 233//233 268//268 267//267
f 220//220 185//185 253//253
f 264//264 261//261 175//175
f 306//306 269//269 242//242
f 197//197 290//290 256//256
f 148//148 273//273 290//290
f 373//373 239//239 16//16
f 314//314 47//47 317//317
f 171//171 194//194 147//147
f 264//264 155//155 134//134
f 207//207 127//127 99//99
f 131//131 279//279 24//24
f 166//166 335//335 246//246
f 73//73 84//84 72//72
f 295//295 83//83 82//82
f 295//295 350//350 66//66
f 280//280 288//288 86//86
f 236//236 184//184 196//196
f 67//67 130//130 293//293
f 312//312 192//192 117//117
f 193//193 292//292 144//144
f 47//47 314//314 263//263
f 335//335 13//13 246//246
f 204//204 283//283 177//177
f 61//61 42//42 24//24
f 216//216 346//346 345//345
f 5//5 25//25 123//123
f 313//313 330//330 361//361
f 243//243 179//179 206//206
f 53//53 202//202 371//371
f 201//201 8//8 153//153
f 50//50 213//213 366//366
f 60//60 13//13 335//335
f 265//265 297//297 103//103
f 285//285 335//335 166//166
f 367//367 340//340 46//46
f 361//361 330//330 6//6
f 302//302 341//341 289//289
f 85//85 269//269 306//306
f 55//55 256//256 290//290
f 256//256 55//55 17//17
f 373//373 372//372 42//42
f 153//153 360//360 373//373
f 191//191 114//114 56//56
f 265//265 103//103 260//260
f 260//260 255//255 160//160
f 291//291 34//34 278//278
f 114//114 33//33 288//288
f 197//197 33//33 114//114
f 27//27 2//2 75//75
f 144//144 292//292 189//189
f 176//176 271//271 74//74
f 265//265 1//1 297//297
f 192//192 279//279 131//131
f 18//18 373//373 16//16
f 367//367 292//292 286//286
f 248//248 255//255 82//82
f 338//338 78//78 241//241
f 223//223 271//271 220//220
f 149//149 360//360 96//96
f 16//16 21//21 18//18
f 352//352 313//313 353//353
f 300//300 96//96 153//153
f 238//238 250//250 249//249
f 373//373 270//270 239//239
f 153//153 373//373 201//201
f 316//316 353//353 202//202
f 339//339 192//192 131//131
f 84//84 9//9 72//72
f 119//119 64//64 53//53
f 290//290 229//229 148//148
f 244//244 230//230 64//64
f 293//293 130//130 73//73
f 358//358 92//92 369//369
f 340//340 367//367 29//29
f 68//68 209//209 127//127
f 16//16 239//239 105//105
f 272//272 363//363 364//364
f 177//177 136//136 357//357
f 108//108 83//83 276//276
f 23//23 39//39 136//136
f 333//333 329//329 65//65
f 299//299 45//45 343//343
f 1//1 285//285 297//297
f 169//169 335//335 115//115
f 285//285 115//115 335//335
f 341//341 43//43 208//208
f 364//364 157//157 137//137
f 367//367 76//76 29//29
f 363//363 310//310 364//364
f 225//225 56//56 254//254
f 343//343 287//287 299//299
f 128//128 309//309 310//310
f 152//152 312//312 308//308
f 201//201 373//373 42//42
f 267//267 108//108 61//61
f 43//43 341//341 109//109
f 345//345 321//321 305//305
f 313//313 361//361 353//353
f 346//346 312//312 117//117
f 231//231 307//307 196//196
f 9//9 103//103 297//297
f 372//372 337//337 131//131
f 231//231 41//41 307//307
f 361//361 6//6 154//154
f 59//59 315//315 49//49
f 27//27 75//75 258//258
f 9//9 84//84 350//350
f 110//110 112//112 109//109
f 320//320 319//319 65//65
f 224//224 325//325 337//337
f 305//305 320//320 281//281
f 117//117 365//365 356//356
f 114//114 280//280 56//56
f 254//254 280//280 200//200
f 340//340 29//29 21//21
f 65//65 319//319 333//333
f 230//230 244//244 318//318
f 309//309 364//364 310//310
f 320//320 39//39 162//162
f 346//346 117//117 345//345
f 345//345 117//117 355//355
f 348//348 342//342 150//150
f 317//317 47//47 34//34
f 328//328 43//43 92//92
f 355//355 117//117 356//356
f 344//344 351//351 369//369
f 229//229 232//232 200//200
f 285//285 275//275 294//294
f 330//330 313//313 287//287
f 359//359 362//362 63//63
f 169//169 123//123 156//156
f 216//216 11//11 308//308
f 351//351 344//344 162//162
f 283//283 235//235 95//95
f 27//27 258//258 150//150
f 332//332 38//38 102//102
f 120//120 11//11 235//235
f 342//342 27//27 150//150
f 117//117 339//339 365//365
f 28//28 178//178 88//88
f 369//369 351//351 371//371
f 176//176 18//18 21//21
f 17//17 197//197 256//256
f 349//349 331//331 368//368
f 260//260 163//163 211//211
f 336//336 337//337 325//325
f 281//281 320//320 65//65
f 128//128 157//157 309//309
f 131//131 337//337 334//334
f 73//73 72//72 304//304
f 265//265 260//260 243//243
f 258//258 49//49 348//348
f 218//218 375//375 355//355
f 355//355 321//321 345//345
f 50//50 62//62 26//26
f 95//95 235//235 327//327
f 221//221 340//340 105//105
f 166//166 72//72 9//9
f 136//136 237//237 112//112
f 131//131 334//334 326//326
f 257//257 19//19 75//75
f 188//188 337//337 54//54
f 55//55 354//354 17//17
f 322//322 110//110 302//302
f 89//89 251//251 119//119
f 39//39 375//375 357//357
f 373//373 360//360 270//270
f 293//293 13//13 7//7
f 375//375 320//320 321//321
f 131//131 24//24 372//372
f 63//63 362//362 352//352
f 202//202 53//53 316//316
f 156//156 60//60 169//169
f 358//358 369//369 371//371
f 333//333 319//319 344//344
f 195//195 152//152 308//308
f 326//326 365//365 339//339
f 305//305 216//216 345//345
f 351//351 81//81 284//284
f 53//53 284//284 89//89
f 169//169 60//60 335//335
f 344//344 319//319 162//162
f 172//172 54//54 372//372
f 342//342 323//323 325//325
f 334//334 337//337 336//336
f 274//274 134//134 155//155
f 370//370 69//69 79//79
f 155//155 334//334 336//336
f 297//297 285//285 166//166
f 330//330 343//343 6//6
f 311//311 249//249 317//317
f 368//368 120//120 286//286
f 324//324 374//374 310//310
f 261//261 198//198 253//253
f 208//208 328//328 154//154
f 344//344 92//92 43//43
f 6//6 45//45 44//44
f 53//53 64//64 316//316
f 115//115 294//294 5//5
f 363//363 324//324 310//310
f 178//178 28//28 194//194
f 315//315 213//213 364//364
f 208//208 43//43 328//328
f 351//351 284//284 371//371
f 152//152 85//85 312//312
f 227//227 147//147 194//194
f 359//359 45//45 362//362
f 113//113 264//264 134//134
f 189//189 7//7 205//205
f 75//75 253//253 257//257
f 334//334 155//155 175//175
f 154//154 289//289 208//208
f 44//44 45//45 347//347
f 97//97 116//116 90//90
f 352//352 362//362 287//287
# 750 faces, 0 coords texture

# End of File
