########
# OBJ file exported from Mathematica (authored by Yajie)
# Vertices: 25
# Faces: 32
########
v 0.5 0.25 0.
v 0.25 0.5 0.
v 0.25 0.25 0.
v 0.75 0.5 0.
v 0.75 0.75 0.
v 0.5 0.75 0.
v 0.25 0. 0.
v 0. 0.25 0.
v 0.75 0. 0.
v 0.75 0.25 0.
v 0.25 0.75 0.
v 0. 0.75 0.
v 0.25 1. 0.
v 1. 0.25 0.
v 1. 0.75 0.
v 0.75 1. 0.
v 0.5 0. 0.
v 0.5 0.5 0.
v 0. 0.5 0.
v 1. 0.5 0.
v 0.5 1. 0.
v 0. 0. 0.
v 1. 0. 0.
v 0. 1. 0.
v 1. 1. 0.
f 1 2 3
f 4 5 6
f 7 3 8
f 9 10 1
f 2 11 12
f 11 6 13
f 10 14 4
f 5 15 16
f 17 1 3
f 1 18 2
f 3 2 19
f 18 4 6
f 4 20 5
f 6 5 21
f 22 7 8
f 7 17 3
f 8 3 19
f 17 9 1
f 9 23 10
f 1 10 18
f 19 2 12
f 2 18 11
f 12 11 24
f 24 11 13
f 11 18 6
f 13 6 21
f 18 10 4
f 10 23 14
f 4 14 20
f 21 5 16
f 5 20 15
f 16 15 25
